%YAML 1.1
%TAG !u! tag:unity3d.com,2011:
--- !u!21 &2100000
Material:
  serializedVersion: 6
  m_ObjectHideFlags: 0
  m_PrefabParentObject: {fileID: 0}
  m_PrefabInternal: {fileID: 0}
  m_Name: goblin_B_outline
  m_Shader: {fileID: 4800000, guid: 054a31a99d11e49d110086ba44295342, type: 3}
  m_ShaderKeywords: 
  m_LightmapFlags: 5
  m_CustomRenderQueue: 2000
  stringTagMap: {}
  m_SavedProperties:
    serializedVersion: 2
    m_TexEnvs:
      data:
        first:
          name: _MainTex
        second:
          m_Texture: {fileID: 2800000, guid: 158255cf9c7748d42ae2b31bd8ea3edb, type: 3}
          m_Scale: {x: 1, y: 1}
          m_Offset: {x: 0, y: 0}
      data:
        first:
          name: _BumpMap
        second:
          m_Texture: {fileID: 2800000, guid: 47f48a30703174046b0facdca8dea5e1, type: 3}
          m_Scale: {x: 1, y: 1}
          m_Offset: {x: 0, y: 0}
      data:
        first:
          name: _Ramp
        second:
          m_Texture: {fileID: 0}
          m_Scale: {x: 1, y: 1}
          m_Offset: {x: 0, y: 0}
    m_Floats:
      data:
        first:
          name: _Shininess
        second: 1
      data:
        first:
          name: _Outline
        second: 0.005
    m_Colors:
      data:
        first:
          name: _Color
        second: {r: 0.375, g: 0.375, b: 0.375, a: 1}
      data:
        first:
          name: _SpecColor
        second: {r: 0.56097186, g: 0.61194026, b: 0.5160392, a: 1}
      data:
        first:
          name: _OutlineColor
        second: {r: 0.8088235, g: 0.011894475, b: 0.011894475, a: 1}
--- !u!1002 &2100001
EditorExtensionImpl:
  serializedVersion: 6
