%YAML 1.1
%TAG !u! tag:unity3d.com,2011:
--- !u!29 &1
SceneSettings:
  m_ObjectHideFlags: 0
  m_PVSData: 
  m_PVSObjectsArray: []
  m_PVSPortalsArray: []
  m_OcclusionBakeSettings:
    smallestOccluder: 5
    smallestHole: 0.25
    backfaceThreshold: 100
--- !u!104 &2
RenderSettings:
  m_ObjectHideFlags: 0
  serializedVersion: 6
  m_Fog: 0
  m_FogColor: {r: 0.5, g: 0.5, b: 0.5, a: 1}
  m_FogMode: 3
  m_FogDensity: 0.01
  m_LinearFogStart: 0
  m_LinearFogEnd: 300
  m_AmbientSkyColor: {r: 0, g: 0, b: 0, a: 1}
  m_AmbientEquatorColor: {r: 0, g: 0, b: 0, a: 1}
  m_AmbientGroundColor: {r: 0, g: 0, b: 0, a: 1}
  m_AmbientIntensity: 1
  m_AmbientMode: 3
  m_SkyboxMaterial: {fileID: 0}
  m_HaloStrength: 0.5
  m_FlareStrength: 1
  m_FlareFadeSpeed: 3
  m_HaloTexture: {fileID: 0}
  m_SpotCookie: {fileID: 10001, guid: 0000000000000000e000000000000000, type: 0}
  m_DefaultReflectionMode: 0
  m_DefaultReflectionResolution: 128
  m_ReflectionBounces: 1
  m_ReflectionIntensity: 1
  m_CustomReflection: {fileID: 0}
  m_Sun: {fileID: 0}
--- !u!157 &4
LightmapSettings:
  m_ObjectHideFlags: 0
  serializedVersion: 6
  m_GIWorkflowMode: 1
  m_LightmapsMode: 1
  m_GISettings:
    serializedVersion: 2
    m_BounceScale: 1
    m_IndirectOutputScale: 1
    m_AlbedoBoost: 1
    m_TemporalCoherenceThreshold: 1
    m_EnvironmentLightingMode: 0
    m_EnableBakedLightmaps: 1
    m_EnableRealtimeLightmaps: 0
  m_LightmapEditorSettings:
    serializedVersion: 3
    m_Resolution: 1
    m_BakeResolution: 50
    m_TextureWidth: 1024
    m_TextureHeight: 1024
    m_AOMaxDistance: 1
    m_Padding: 2
    m_CompAOExponent: 0
    m_LightmapParameters: {fileID: 0}
    m_TextureCompression: 0
    m_FinalGather: 0
    m_FinalGatherRayCount: 1024
    m_ReflectionCompression: 2
  m_LightingDataAsset: {fileID: 0}
  m_RuntimeCPUUsage: 25
--- !u!196 &5
NavMeshSettings:
  serializedVersion: 2
  m_ObjectHideFlags: 0
  m_BuildSettings:
    serializedVersion: 2
    agentRadius: 0.5
    agentHeight: 2
    agentSlope: 45
    agentClimb: 0.4
    ledgeDropHeight: 0
    maxJumpAcrossDistance: 0
    accuratePlacement: 0
    minRegionArea: 2
    cellSize: 0.16666666
    manualCellSize: 0
  m_NavMeshData: {fileID: 0}
--- !u!1 &55188096
GameObject:
  m_ObjectHideFlags: 0
  m_PrefabParentObject: {fileID: 100008, guid: 1078dad3c5d5163489eca104ecf31e1b, type: 2}
  m_PrefabInternal: {fileID: 0}
  serializedVersion: 4
  m_Component:
  - 4: {fileID: 55188097}
  m_Layer: 0
  m_Name: B_R_Finger4
  m_TagString: Untagged
  m_Icon: {fileID: 0}
  m_NavMeshLayer: 0
  m_StaticEditorFlags: 0
  m_IsActive: 1
--- !u!4 &55188097
Transform:
  m_ObjectHideFlags: 0
  m_PrefabParentObject: {fileID: 400086, guid: 1078dad3c5d5163489eca104ecf31e1b, type: 2}
  m_PrefabInternal: {fileID: 0}
  m_GameObject: {fileID: 55188096}
  m_LocalRotation: {x: 0.18778305, y: -0.030491598, z: -0.13896619, w: 0.97185194}
  m_LocalPosition: {x: -0.11762779, y: 0.03545456, z: -0.098168105}
  m_LocalScale: {x: 1.0000004, y: 1.000001, z: 1.0000012}
  m_Children:
  - {fileID: 464193819}
  m_Father: {fileID: 222088115}
  m_RootOrder: 4
--- !u!1 &64307005
GameObject:
  m_ObjectHideFlags: 0
  m_PrefabParentObject: {fileID: 100032, guid: 1078dad3c5d5163489eca104ecf31e1b, type: 2}
  m_PrefabInternal: {fileID: 0}
  serializedVersion: 4
  m_Component:
  - 4: {fileID: 64307006}
  m_Layer: 0
  m_Name: B_R_Finger0
  m_TagString: Untagged
  m_Icon: {fileID: 0}
  m_NavMeshLayer: 0
  m_StaticEditorFlags: 0
  m_IsActive: 1
--- !u!4 &64307006
Transform:
  m_ObjectHideFlags: 0
  m_PrefabParentObject: {fileID: 400092, guid: 1078dad3c5d5163489eca104ecf31e1b, type: 2}
  m_PrefabInternal: {fileID: 0}
  m_GameObject: {fileID: 64307005}
  m_LocalRotation: {x: -0.45947778, y: 0.18728472, z: -0.14286093, w: 0.8563851}
  m_LocalPosition: {x: 0.0040740967, y: 0.01948883, z: 0.007550554}
  m_LocalScale: {x: 0.99999994, y: 0.9999999, z: 1}
  m_Children:
  - {fileID: 372836610}
  m_Father: {fileID: 222088115}
  m_RootOrder: 0
--- !u!1 &71613860
GameObject:
  m_ObjectHideFlags: 0
  m_PrefabParentObject: {fileID: 100092, guid: 1078dad3c5d5163489eca104ecf31e1b, type: 2}
  m_PrefabInternal: {fileID: 0}
  serializedVersion: 4
  m_Component:
  - 4: {fileID: 71613861}
  m_Layer: 0
  m_Name: B_Spine
  m_TagString: Untagged
  m_Icon: {fileID: 0}
  m_NavMeshLayer: 0
  m_StaticEditorFlags: 0
  m_IsActive: 1
--- !u!4 &71613861
Transform:
  m_ObjectHideFlags: 0
  m_PrefabParentObject: {fileID: 400104, guid: 1078dad3c5d5163489eca104ecf31e1b, type: 2}
  m_PrefabInternal: {fileID: 0}
  m_GameObject: {fileID: 71613860}
  m_LocalRotation: {x: -0.0000016033553, y: -0.000000021770637, z: -0.00039744377,
    w: 0.99999994}
  m_LocalPosition: {x: -0.076767884, y: -0.01631566, z: 0.000000041437733}
  m_LocalScale: {x: 1, y: 1, z: 1}
  m_Children:
  - {fileID: 1821365476}
  m_Father: {fileID: 1639994936}
  m_RootOrder: 2
--- !u!1 &92514666
GameObject:
  m_ObjectHideFlags: 0
  m_PrefabParentObject: {fileID: 100012, guid: 1078dad3c5d5163489eca104ecf31e1b, type: 2}
  m_PrefabInternal: {fileID: 0}
  serializedVersion: 4
  m_Component:
  - 4: {fileID: 92514667}
  m_Layer: 0
  m_Name: B_R_Finger31
  m_TagString: Untagged
  m_Icon: {fileID: 0}
  m_NavMeshLayer: 0
  m_StaticEditorFlags: 0
  m_IsActive: 1
--- !u!4 &92514667
Transform:
  m_ObjectHideFlags: 0
  m_PrefabParentObject: {fileID: 400036, guid: 1078dad3c5d5163489eca104ecf31e1b, type: 2}
  m_PrefabInternal: {fileID: 0}
  m_GameObject: {fileID: 92514666}
  m_LocalRotation: {x: 0.0000000107255325, y: 0.000000059103193, z: -0.05513471, w: 0.99847895}
  m_LocalPosition: {x: -0.04456787, y: -0.00000015258789, z: 0.000000038146972}
  m_LocalScale: {x: 1, y: 1, z: 1.0000002}
  m_Children:
  - {fileID: 787888312}
  m_Father: {fileID: 1424082485}
  m_RootOrder: 0
--- !u!1 &147701516
GameObject:
  m_ObjectHideFlags: 0
  m_PrefabParentObject: {fileID: 100058, guid: 1078dad3c5d5163489eca104ecf31e1b, type: 2}
  m_PrefabInternal: {fileID: 0}
  serializedVersion: 4
  m_Component:
  - 4: {fileID: 147701517}
  m_Layer: 0
  m_Name: B_L_Finger3
  m_TagString: Untagged
  m_Icon: {fileID: 0}
  m_NavMeshLayer: 0
  m_StaticEditorFlags: 0
  m_IsActive: 1
--- !u!4 &147701517
Transform:
  m_ObjectHideFlags: 0
  m_PrefabParentObject: {fileID: 400068, guid: 1078dad3c5d5163489eca104ecf31e1b, type: 2}
  m_PrefabInternal: {fileID: 0}
  m_GameObject: {fileID: 147701516}
  m_LocalRotation: {x: -0.08928487, y: -0.0046399427, z: -0.19038832, w: 0.9776293}
  m_LocalPosition: {x: -0.13948502, y: 0.009346466, z: 0.0755102}
  m_LocalScale: {x: 1.0000002, y: 1.3974205, z: 1.3698882}
  m_Children:
  - {fileID: 351425682}
  m_Father: {fileID: 1910732405}
  m_RootOrder: 3
--- !u!1 &166129165
GameObject:
  m_ObjectHideFlags: 0
  m_PrefabParentObject: {fileID: 100084, guid: 1078dad3c5d5163489eca104ecf31e1b, type: 2}
  m_PrefabInternal: {fileID: 0}
  serializedVersion: 4
  m_Component:
  - 4: {fileID: 166129166}
  m_Layer: 0
  m_Name: B_L_UpperArm
  m_TagString: Untagged
  m_Icon: {fileID: 0}
  m_NavMeshLayer: 0
  m_StaticEditorFlags: 0
  m_IsActive: 1
--- !u!4 &166129166
Transform:
  m_ObjectHideFlags: 0
  m_PrefabParentObject: {fileID: 400082, guid: 1078dad3c5d5163489eca104ecf31e1b, type: 2}
  m_PrefabInternal: {fileID: 0}
  m_GameObject: {fileID: 166129165}
  m_LocalRotation: {x: -0.023720378, y: -0.27763298, z: 0.07913864, w: 0.9571282}
  m_LocalPosition: {x: -0.23753034, y: 0.000000023841856, z: 0}
  m_LocalScale: {x: 0.9999998, y: 0.9999999, z: 1.0000004}
  m_Children:
  - {fileID: 653983902}
  m_Father: {fileID: 1397307623}
  m_RootOrder: 0
--- !u!1 &174080092
GameObject:
  m_ObjectHideFlags: 0
  m_PrefabParentObject: {fileID: 100024, guid: 1078dad3c5d5163489eca104ecf31e1b, type: 2}
  m_PrefabInternal: {fileID: 0}
  serializedVersion: 4
  m_Component:
  - 4: {fileID: 174080093}
  m_Layer: 0
  m_Name: B_R_Finger11
  m_TagString: Untagged
  m_Icon: {fileID: 0}
  m_NavMeshLayer: 0
  m_StaticEditorFlags: 0
  m_IsActive: 1
--- !u!4 &174080093
Transform:
  m_ObjectHideFlags: 0
  m_PrefabParentObject: {fileID: 400040, guid: 1078dad3c5d5163489eca104ecf31e1b, type: 2}
  m_PrefabInternal: {fileID: 0}
  m_GameObject: {fileID: 174080092}
  m_LocalRotation: {x: 0.000000020012227, y: 0.000000093263786, z: -0.044602778, w: 0.99900484}
  m_LocalPosition: {x: -0.044568174, y: 0, z: 0.000000076293944}
  m_LocalScale: {x: 1.0000001, y: 0.99999994, z: 1.0000001}
  m_Children:
  - {fileID: 1552621402}
  m_Father: {fileID: 1862149850}
  m_RootOrder: 0
--- !u!1 &192263738
GameObject:
  m_ObjectHideFlags: 0
  m_PrefabParentObject: {fileID: 100094, guid: 1078dad3c5d5163489eca104ecf31e1b, type: 2}
  m_PrefabInternal: {fileID: 0}
  serializedVersion: 4
  m_Component:
  - 4: {fileID: 192263739}
  m_Layer: 0
  m_Name: B_R_Toe0
  m_TagString: Untagged
  m_Icon: {fileID: 0}
  m_NavMeshLayer: 0
  m_StaticEditorFlags: 0
  m_IsActive: 1
--- !u!4 &192263739
Transform:
  m_ObjectHideFlags: 0
  m_PrefabParentObject: {fileID: 400006, guid: 1078dad3c5d5163489eca104ecf31e1b, type: 2}
  m_PrefabInternal: {fileID: 0}
  m_GameObject: {fileID: 192263738}
  m_LocalRotation: {x: 0.00000001708656, y: -0.0000000581435, z: -0.7071068, w: 0.7071068}
  m_LocalPosition: {x: -0.18214437, y: 0.14545952, z: -0.00020650863}
  m_LocalScale: {x: 1, y: 1, z: 1}
  m_Children: []
  m_Father: {fileID: 1634367129}
  m_RootOrder: 0
--- !u!1001 &207893267
Prefab:
  m_ObjectHideFlags: 0
  serializedVersion: 2
  m_Modification:
    m_TransformParent: {fileID: 0}
    m_Modifications:
    - target: {fileID: 489288, guid: 16dc4b51d7b30f74a9fd33417596daa7, type: 2}
      propertyPath: m_LocalPosition.x
      value: 4.53880119
      objectReference: {fileID: 0}
    - target: {fileID: 489288, guid: 16dc4b51d7b30f74a9fd33417596daa7, type: 2}
      propertyPath: m_LocalPosition.y
      value: 2.94129562
      objectReference: {fileID: 0}
    - target: {fileID: 489288, guid: 16dc4b51d7b30f74a9fd33417596daa7, type: 2}
      propertyPath: m_LocalPosition.z
      value: 0
      objectReference: {fileID: 0}
    - target: {fileID: 489288, guid: 16dc4b51d7b30f74a9fd33417596daa7, type: 2}
      propertyPath: m_LocalRotation.x
      value: .0922957286
      objectReference: {fileID: 0}
    - target: {fileID: 489288, guid: 16dc4b51d7b30f74a9fd33417596daa7, type: 2}
      propertyPath: m_LocalRotation.y
      value: -.7010566
      objectReference: {fileID: 0}
    - target: {fileID: 489288, guid: 16dc4b51d7b30f74a9fd33417596daa7, type: 2}
      propertyPath: m_LocalRotation.z
      value: .0922959223
      objectReference: {fileID: 0}
    - target: {fileID: 489288, guid: 16dc4b51d7b30f74a9fd33417596daa7, type: 2}
      propertyPath: m_LocalRotation.w
      value: .701058209
      objectReference: {fileID: 0}
    - target: {fileID: 489288, guid: 16dc4b51d7b30f74a9fd33417596daa7, type: 2}
      propertyPath: m_RootOrder
      value: 3
      objectReference: {fileID: 0}
    - target: {fileID: 11489288, guid: 16dc4b51d7b30f74a9fd33417596daa7, type: 2}
      propertyPath: target
      value: 
      objectReference: {fileID: 1284871756}
    m_RemovedComponents: []
  m_ParentPrefab: {fileID: 100100000, guid: 16dc4b51d7b30f74a9fd33417596daa7, type: 2}
  m_RootGameObject: {fileID: 1239298411}
  m_IsPrefabParent: 0
--- !u!1 &222088114
GameObject:
  m_ObjectHideFlags: 0
  m_PrefabParentObject: {fileID: 100034, guid: 1078dad3c5d5163489eca104ecf31e1b, type: 2}
  m_PrefabInternal: {fileID: 0}
  serializedVersion: 4
  m_Component:
  - 4: {fileID: 222088115}
  m_Layer: 0
  m_Name: B_R_Hand
  m_TagString: Untagged
  m_Icon: {fileID: 0}
  m_NavMeshLayer: 0
  m_StaticEditorFlags: 0
  m_IsActive: 1
--- !u!4 &222088115
Transform:
  m_ObjectHideFlags: 0
  m_PrefabParentObject: {fileID: 400094, guid: 1078dad3c5d5163489eca104ecf31e1b, type: 2}
  m_PrefabInternal: {fileID: 0}
  m_GameObject: {fileID: 222088114}
  m_LocalRotation: {x: 0.70710677, y: -0.00000014751397, z: -0.000000063220284, w: 0.7071068}
  m_LocalPosition: {x: -0.14660549, y: -0.000000009536743, z: -0.00000030517577}
  m_LocalScale: {x: 0.99999994, y: 1.0000002, z: 1.0000002}
  m_Children:
  - {fileID: 64307006}
  - {fileID: 1862149850}
  - {fileID: 2008277510}
  - {fileID: 1424082485}
  - {fileID: 55188097}
  m_Father: {fileID: 1852271292}
  m_RootOrder: 0
--- !u!1 &247159293
GameObject:
  m_ObjectHideFlags: 0
  m_PrefabParentObject: {fileID: 100108, guid: 1078dad3c5d5163489eca104ecf31e1b, type: 2}
  m_PrefabInternal: {fileID: 0}
  serializedVersion: 4
  m_Component:
  - 4: {fileID: 247159294}
  m_Layer: 0
  m_Name: B_L_Thigh
  m_TagString: Untagged
  m_Icon: {fileID: 0}
  m_NavMeshLayer: 0
  m_StaticEditorFlags: 0
  m_IsActive: 1
--- !u!4 &247159294
Transform:
  m_ObjectHideFlags: 0
  m_PrefabParentObject: {fileID: 400108, guid: 1078dad3c5d5163489eca104ecf31e1b, type: 2}
  m_PrefabInternal: {fileID: 0}
  m_GameObject: {fileID: 247159293}
  m_LocalRotation: {x: -0.071485765, y: 0.9947076, z: -0.008300922, w: 0.07333293}
  m_LocalPosition: {x: -0, y: 0.00000020503997, z: 0.11161451}
  m_LocalScale: {x: 0.99999994, y: 0.99999994, z: 1}
  m_Children:
  - {fileID: 2061342765}
  m_Father: {fileID: 1639994936}
  m_RootOrder: 0
--- !u!1 &351425681
GameObject:
  m_ObjectHideFlags: 0
  m_PrefabParentObject: {fileID: 100056, guid: 1078dad3c5d5163489eca104ecf31e1b, type: 2}
  m_PrefabInternal: {fileID: 0}
  serializedVersion: 4
  m_Component:
  - 4: {fileID: 351425682}
  m_Layer: 0
  m_Name: B_L_Finger31
  m_TagString: Untagged
  m_Icon: {fileID: 0}
  m_NavMeshLayer: 0
  m_StaticEditorFlags: 0
  m_IsActive: 1
--- !u!4 &351425682
Transform:
  m_ObjectHideFlags: 0
  m_PrefabParentObject: {fileID: 400020, guid: 1078dad3c5d5163489eca104ecf31e1b, type: 2}
  m_PrefabInternal: {fileID: 0}
  m_GameObject: {fileID: 351425681}
  m_LocalRotation: {x: -0.00000016964314, y: -0.0000001652934, z: -0.03954295, w: 0.99921787}
  m_LocalPosition: {x: -0.044568326, y: 0.000000076293944, z: 0.000000019073486}
  m_LocalScale: {x: 0.9970388, y: 1.0057585, z: 1.0000004}
  m_Children:
  - {fileID: 1176734574}
  m_Father: {fileID: 147701517}
  m_RootOrder: 0
--- !u!1 &372365574
GameObject:
  m_ObjectHideFlags: 0
  m_PrefabParentObject: {fileID: 100048, guid: 1078dad3c5d5163489eca104ecf31e1b, type: 2}
  m_PrefabInternal: {fileID: 0}
  serializedVersion: 4
  m_Component:
  - 4: {fileID: 372365575}
  m_Layer: 0
  m_Name: B_L_Finger42
  m_TagString: Untagged
  m_Icon: {fileID: 0}
  m_NavMeshLayer: 0
  m_StaticEditorFlags: 0
  m_IsActive: 1
--- !u!4 &372365575
Transform:
  m_ObjectHideFlags: 0
  m_PrefabParentObject: {fileID: 400012, guid: 1078dad3c5d5163489eca104ecf31e1b, type: 2}
  m_PrefabInternal: {fileID: 0}
  m_GameObject: {fileID: 372365574}
  m_LocalRotation: {x: -0.000000087569816, y: -0.00000021407372, z: -0.027110582,
    w: 0.9996325}
  m_LocalPosition: {x: -0.03327652, y: -0.00000015258789, z: -0.000000114440915}
  m_LocalScale: {x: 0.9986031, y: 1.0027214, z: 1.0000002}
  m_Children: []
  m_Father: {fileID: 636764384}
  m_RootOrder: 0
--- !u!1 &372836609
GameObject:
  m_ObjectHideFlags: 0
  m_PrefabParentObject: {fileID: 100030, guid: 1078dad3c5d5163489eca104ecf31e1b, type: 2}
  m_PrefabInternal: {fileID: 0}
  serializedVersion: 4
  m_Component:
  - 4: {fileID: 372836610}
  m_Layer: 0
  m_Name: B_R_Finger01
  m_TagString: Untagged
  m_Icon: {fileID: 0}
  m_NavMeshLayer: 0
  m_StaticEditorFlags: 0
  m_IsActive: 1
--- !u!4 &372836610
Transform:
  m_ObjectHideFlags: 0
  m_PrefabParentObject: {fileID: 400090, guid: 1078dad3c5d5163489eca104ecf31e1b, type: 2}
  m_PrefabInternal: {fileID: 0}
  m_GameObject: {fileID: 372836609}
  m_LocalRotation: {x: 0.000000017698104, y: 0.00000014963571, z: 0.031157203, w: 0.9995145}
  m_LocalPosition: {x: -0.05193329, y: -0.00000022888183, z: 0.000000076293944}
  m_LocalScale: {x: 0.9999999, y: 0.99999994, z: 0.99999994}
  m_Children:
  - {fileID: 483402672}
  m_Father: {fileID: 64307006}
  m_RootOrder: 0
--- !u!1 &398728813
GameObject:
  m_ObjectHideFlags: 0
  m_PrefabParentObject: {fileID: 100112, guid: 1078dad3c5d5163489eca104ecf31e1b, type: 2}
  m_PrefabInternal: {fileID: 0}
  serializedVersion: 4
  m_Component:
  - 4: {fileID: 398728814}
  m_Layer: 0
  m_Name: Motion
  m_TagString: Untagged
  m_Icon: {fileID: 0}
  m_NavMeshLayer: 0
  m_StaticEditorFlags: 0
  m_IsActive: 1
--- !u!4 &398728814
Transform:
  m_ObjectHideFlags: 0
  m_PrefabParentObject: {fileID: 400112, guid: 1078dad3c5d5163489eca104ecf31e1b, type: 2}
  m_PrefabInternal: {fileID: 0}
  m_GameObject: {fileID: 398728813}
  m_LocalRotation: {x: -0.5, y: 0.5, z: 0.5, w: 0.5}
  m_LocalPosition: {x: -0.0000000099258495, y: 0, z: -0.0017328988}
  m_LocalScale: {x: 1, y: 1, z: 1}
  m_Children:
  - {fileID: 1639994936}
  m_Father: {fileID: 1284871756}
  m_RootOrder: 1
--- !u!1 &464193818
GameObject:
  m_ObjectHideFlags: 0
  m_PrefabParentObject: {fileID: 100006, guid: 1078dad3c5d5163489eca104ecf31e1b, type: 2}
  m_PrefabInternal: {fileID: 0}
  serializedVersion: 4
  m_Component:
  - 4: {fileID: 464193819}
  m_Layer: 0
  m_Name: B_R_Finger41
  m_TagString: Untagged
  m_Icon: {fileID: 0}
  m_NavMeshLayer: 0
  m_StaticEditorFlags: 0
  m_IsActive: 1
--- !u!4 &464193819
Transform:
  m_ObjectHideFlags: 0
  m_PrefabParentObject: {fileID: 400038, guid: 1078dad3c5d5163489eca104ecf31e1b, type: 2}
  m_PrefabInternal: {fileID: 0}
  m_GameObject: {fileID: 464193818}
  m_LocalRotation: {x: -0.000000009700987, y: -0.000000059279948, z: -0.03784514,
    w: 0.9992836}
  m_LocalPosition: {x: -0.033276215, y: 0.00000015258789, z: 0.0000002670288}
  m_LocalScale: {x: 1.0000005, y: 1.0000002, z: 1.0000002}
  m_Children:
  - {fileID: 1933431457}
  m_Father: {fileID: 55188097}
  m_RootOrder: 0
--- !u!1 &483402671
GameObject:
  m_ObjectHideFlags: 0
  m_PrefabParentObject: {fileID: 100028, guid: 1078dad3c5d5163489eca104ecf31e1b, type: 2}
  m_PrefabInternal: {fileID: 0}
  serializedVersion: 4
  m_Component:
  - 4: {fileID: 483402672}
  m_Layer: 0
  m_Name: B_R_Finger02
  m_TagString: Untagged
  m_Icon: {fileID: 0}
  m_NavMeshLayer: 0
  m_StaticEditorFlags: 0
  m_IsActive: 1
--- !u!4 &483402672
Transform:
  m_ObjectHideFlags: 0
  m_PrefabParentObject: {fileID: 400088, guid: 1078dad3c5d5163489eca104ecf31e1b, type: 2}
  m_PrefabInternal: {fileID: 0}
  m_GameObject: {fileID: 483402671}
  m_LocalRotation: {x: -0.0000000131316025, y: -0.00000011941717, z: 0.014830327,
    w: 0.99989}
  m_LocalPosition: {x: -0.0552993, y: 0.00000015258789, z: 0.00000030517577}
  m_LocalScale: {x: 1, y: 1.0000005, z: 1.0000001}
  m_Children: []
  m_Father: {fileID: 372836610}
  m_RootOrder: 0
--- !u!1 &516682874
GameObject:
  m_ObjectHideFlags: 0
  m_PrefabParentObject: {fileID: 100042, guid: 1078dad3c5d5163489eca104ecf31e1b, type: 2}
  m_PrefabInternal: {fileID: 0}
  serializedVersion: 4
  m_Component:
  - 4: {fileID: 516682875}
  m_Layer: 0
  m_Name: B_R_Clavicle
  m_TagString: Untagged
  m_Icon: {fileID: 0}
  m_NavMeshLayer: 0
  m_StaticEditorFlags: 0
  m_IsActive: 1
--- !u!4 &516682875
Transform:
  m_ObjectHideFlags: 0
  m_PrefabParentObject: {fileID: 400102, guid: 1078dad3c5d5163489eca104ecf31e1b, type: 2}
  m_PrefabInternal: {fileID: 0}
  m_GameObject: {fileID: 516682874}
  m_LocalRotation: {x: 0.70710677, y: 0.00028147915, z: 0.70710677, w: -0.00028147915}
  m_LocalPosition: {x: -0.17736861, y: 0.00074661255, z: -0.050179634}
  m_LocalScale: {x: 1, y: 1, z: 1}
  m_Children:
  - {fileID: 1824940445}
  m_Father: {fileID: 1901239237}
  m_RootOrder: 2
--- !u!1 &575362559
GameObject:
  m_ObjectHideFlags: 0
  m_PrefabParentObject: {fileID: 100100, guid: 1078dad3c5d5163489eca104ecf31e1b, type: 2}
  m_PrefabInternal: {fileID: 0}
  serializedVersion: 4
  m_Component:
  - 4: {fileID: 575362560}
  m_Layer: 0
  m_Name: B_R_Thigh
  m_TagString: Untagged
  m_Icon: {fileID: 0}
  m_NavMeshLayer: 0
  m_StaticEditorFlags: 0
  m_IsActive: 1
--- !u!4 &575362560
Transform:
  m_ObjectHideFlags: 0
  m_PrefabParentObject: {fileID: 400106, guid: 1078dad3c5d5163489eca104ecf31e1b, type: 2}
  m_PrefabInternal: {fileID: 0}
  m_GameObject: {fileID: 575362559}
  m_LocalRotation: {x: -0.07148574, y: 0.99470764, z: 0.008298394, w: -0.07333295}
  m_LocalPosition: {x: -0, y: -0.00000010967254, z: -0.11161451}
  m_LocalScale: {x: 1, y: 0.99999994, z: 1}
  m_Children:
  - {fileID: 2086605666}
  m_Father: {fileID: 1639994936}
  m_RootOrder: 1
--- !u!1 &629345569
GameObject:
  m_ObjectHideFlags: 0
  m_PrefabParentObject: {fileID: 100062, guid: 1078dad3c5d5163489eca104ecf31e1b, type: 2}
  m_PrefabInternal: {fileID: 0}
  serializedVersion: 4
  m_Component:
  - 4: {fileID: 629345570}
  m_Layer: 0
  m_Name: B_L_Finger21
  m_TagString: Untagged
  m_Icon: {fileID: 0}
  m_NavMeshLayer: 0
  m_StaticEditorFlags: 0
  m_IsActive: 1
--- !u!4 &629345570
Transform:
  m_ObjectHideFlags: 0
  m_PrefabParentObject: {fileID: 400016, guid: 1078dad3c5d5163489eca104ecf31e1b, type: 2}
  m_PrefabInternal: {fileID: 0}
  m_GameObject: {fileID: 629345569}
  m_LocalRotation: {x: 0.00000071672235, y: -0.00000008582127, z: -0.04910729, w: 0.99879354}
  m_LocalPosition: {x: -0.041318893, y: 0, z: 0.000000085830685}
  m_LocalScale: {x: 0.9954472, y: 1.0088319, z: 0.9999999}
  m_Children:
  - {fileID: 657190130}
  m_Father: {fileID: 1388774151}
  m_RootOrder: 0
--- !u!1 &636764383
GameObject:
  m_ObjectHideFlags: 0
  m_PrefabParentObject: {fileID: 100050, guid: 1078dad3c5d5163489eca104ecf31e1b, type: 2}
  m_PrefabInternal: {fileID: 0}
  serializedVersion: 4
  m_Component:
  - 4: {fileID: 636764384}
  m_Layer: 0
  m_Name: B_L_Finger41
  m_TagString: Untagged
  m_Icon: {fileID: 0}
  m_NavMeshLayer: 0
  m_StaticEditorFlags: 0
  m_IsActive: 1
--- !u!4 &636764384
Transform:
  m_ObjectHideFlags: 0
  m_PrefabParentObject: {fileID: 400022, guid: 1078dad3c5d5163489eca104ecf31e1b, type: 2}
  m_PrefabInternal: {fileID: 0}
  m_GameObject: {fileID: 636764383}
  m_LocalRotation: {x: 0.00000027508085, y: 0.00000027616173, z: -0.027110858, w: 0.9996325}
  m_LocalPosition: {x: -0.033276822, y: 0.000000076293944, z: 0.000000076293944}
  m_LocalScale: {x: 0.99860394, y: 1.0027221, z: 0.99999976}
  m_Children:
  - {fileID: 372365575}
  m_Father: {fileID: 1800042561}
  m_RootOrder: 0
--- !u!1 &653983901
GameObject:
  m_ObjectHideFlags: 0
  m_PrefabParentObject: {fileID: 100082, guid: 1078dad3c5d5163489eca104ecf31e1b, type: 2}
  m_PrefabInternal: {fileID: 0}
  serializedVersion: 4
  m_Component:
  - 4: {fileID: 653983902}
  m_Layer: 0
  m_Name: B_L_Forearm
  m_TagString: Untagged
  m_Icon: {fileID: 0}
  m_NavMeshLayer: 0
  m_StaticEditorFlags: 0
  m_IsActive: 1
--- !u!4 &653983902
Transform:
  m_ObjectHideFlags: 0
  m_PrefabParentObject: {fileID: 400080, guid: 1078dad3c5d5163489eca104ecf31e1b, type: 2}
  m_PrefabInternal: {fileID: 0}
  m_GameObject: {fileID: 653983901}
  m_LocalRotation: {x: 0.00000005571744, y: -0.000000071879974, z: 0.048655927, w: 0.9988156}
  m_LocalPosition: {x: -0.3377439, y: 0.0000001335144, z: 0}
  m_LocalScale: {x: 0.99999976, y: 1, z: 0.9999994}
  m_Children:
  - {fileID: 1410974629}
  m_Father: {fileID: 166129166}
  m_RootOrder: 0
--- !u!1 &657190129
GameObject:
  m_ObjectHideFlags: 0
  m_PrefabParentObject: {fileID: 100060, guid: 1078dad3c5d5163489eca104ecf31e1b, type: 2}
  m_PrefabInternal: {fileID: 0}
  serializedVersion: 4
  m_Component:
  - 4: {fileID: 657190130}
  m_Layer: 0
  m_Name: B_L_Finger22
  m_TagString: Untagged
  m_Icon: {fileID: 0}
  m_NavMeshLayer: 0
  m_StaticEditorFlags: 0
  m_IsActive: 1
--- !u!4 &657190130
Transform:
  m_ObjectHideFlags: 0
  m_PrefabParentObject: {fileID: 400008, guid: 1078dad3c5d5163489eca104ecf31e1b, type: 2}
  m_PrefabInternal: {fileID: 0}
  m_GameObject: {fileID: 657190129}
  m_LocalRotation: {x: -0.00000014772492, y: 0.00000004016168, z: -0.031704634, w: 0.9994973}
  m_LocalPosition: {x: -0.046941604, y: 0.000000076293944, z: -0.000000057220458}
  m_LocalScale: {x: 0.9980916, y: 1.0037154, z: 0.99999976}
  m_Children: []
  m_Father: {fileID: 629345570}
  m_RootOrder: 0
--- !u!1 &787888311
GameObject:
  m_ObjectHideFlags: 0
  m_PrefabParentObject: {fileID: 100010, guid: 1078dad3c5d5163489eca104ecf31e1b, type: 2}
  m_PrefabInternal: {fileID: 0}
  serializedVersion: 4
  m_Component:
  - 4: {fileID: 787888312}
  m_Layer: 0
  m_Name: B_R_Finger32
  m_TagString: Untagged
  m_Icon: {fileID: 0}
  m_NavMeshLayer: 0
  m_StaticEditorFlags: 0
  m_IsActive: 1
--- !u!4 &787888312
Transform:
  m_ObjectHideFlags: 0
  m_PrefabParentObject: {fileID: 400032, guid: 1078dad3c5d5163489eca104ecf31e1b, type: 2}
  m_PrefabInternal: {fileID: 0}
  m_GameObject: {fileID: 787888311}
  m_LocalRotation: {x: 0.0000002500138, y: 0.000000068275796, z: -0.055134766, w: 0.99847895}
  m_LocalPosition: {x: -0.044568174, y: -0.00000015258789, z: -0.00000015258789}
  m_LocalScale: {x: 0.9999999, y: 1, z: 1.0000004}
  m_Children: []
  m_Father: {fileID: 92514667}
  m_RootOrder: 0
--- !u!1 &866564151
GameObject:
  m_ObjectHideFlags: 0
  m_PrefabParentObject: {fileID: 100002, guid: 1078dad3c5d5163489eca104ecf31e1b, type: 2}
  m_PrefabInternal: {fileID: 0}
  serializedVersion: 4
  m_Component:
  - 4: {fileID: 866564152}
  - 137: {fileID: 866564153}
  m_Layer: 0
  m_Name: Mesh_Heavy
  m_TagString: Untagged
  m_Icon: {fileID: 0}
  m_NavMeshLayer: 0
  m_StaticEditorFlags: 0
  m_IsActive: 1
--- !u!4 &866564152
Transform:
  m_ObjectHideFlags: 0
  m_PrefabParentObject: {fileID: 400002, guid: 1078dad3c5d5163489eca104ecf31e1b, type: 2}
  m_PrefabInternal: {fileID: 0}
  m_GameObject: {fileID: 866564151}
  m_LocalRotation: {x: -0.7071068, y: 0, z: -0, w: 0.7071068}
  m_LocalPosition: {x: -0.000000010001597, y: 0, z: 0}
  m_LocalScale: {x: 1, y: 1, z: 1}
  m_Children: []
  m_Father: {fileID: 1284871756}
  m_RootOrder: 0
--- !u!137 &866564153
SkinnedMeshRenderer:
  m_ObjectHideFlags: 0
  m_PrefabParentObject: {fileID: 13700000, guid: 1078dad3c5d5163489eca104ecf31e1b,
    type: 2}
  m_PrefabInternal: {fileID: 0}
  m_GameObject: {fileID: 866564151}
  m_Enabled: 1
  m_CastShadows: 1
  m_ReceiveShadows: 1
  m_Materials:
  - {fileID: 2100000, guid: f1862135945698b40907bd2690eadca5, type: 2}
  m_SubsetIndices: 
  m_StaticBatchRoot: {fileID: 0}
  m_UseLightProbes: 0
  m_ReflectionProbeUsage: 1
  m_ProbeAnchor: {fileID: 0}
  m_ScaleInLightmap: 1
  m_PreserveUVs: 0
  m_IgnoreNormalsForChartDetection: 0
  m_ImportantGI: 0
  m_MinimumChartSize: 4
  m_AutoUVMaxDistance: 0.5
  m_AutoUVMaxAngle: 89
  m_LightmapParameters: {fileID: 0}
  m_SortingLayerID: 0
  m_SortingOrder: 0
  serializedVersion: 2
  m_Quality: 0
  m_UpdateWhenOffscreen: 0
  m_Mesh: {fileID: 4300000, guid: 8232c9b8b57970e439a8c6d10fc534d5, type: 3}
  m_Bones:
  - {fileID: 1639994936}
  - {fileID: 71613861}
  - {fileID: 247159294}
  - {fileID: 575362560}
  - {fileID: 398728814}
  - {fileID: 1901239237}
  - {fileID: 1821365476}
  - {fileID: 1824940445}
  - {fileID: 192263739}
  - {fileID: 64307006}
  - {fileID: 372836610}
  - {fileID: 222088115}
  - {fileID: 1862149850}
  - {fileID: 483402672}
  - {fileID: 2008277510}
  - {fileID: 174080093}
  - {fileID: 1552621402}
  - {fileID: 1449010614}
  - {fileID: 1424082485}
  - {fileID: 55188097}
  - {fileID: 92514667}
  - {fileID: 464193819}
  - {fileID: 1933431457}
  - {fileID: 787888312}
  - {fileID: 1297995373}
  - {fileID: 1634367129}
  - {fileID: 1446166351}
  - {fileID: 516682875}
  - {fileID: 2086605666}
  - {fileID: 1279912117}
  - {fileID: 166129166}
  - {fileID: 2071227176}
  - {fileID: 1910732405}
  - {fileID: 1388774151}
  - {fileID: 147701517}
  - {fileID: 1800042561}
  - {fileID: 629345570}
  - {fileID: 351425682}
  - {fileID: 636764384}
  - {fileID: 372365575}
  - {fileID: 1176734574}
  - {fileID: 1856331144}
  - {fileID: 1965786144}
  - {fileID: 1950910031}
  - {fileID: 1240169622}
  - {fileID: 1615401676}
  - {fileID: 1789372566}
  - {fileID: 653983902}
  - {fileID: 1447968065}
  - {fileID: 657190130}
  - {fileID: 1397307623}
  - {fileID: 2061342765}
  - {fileID: 934936570}
  m_BlendShapeWeights: []
  m_RootBone: {fileID: 398728814}
  m_AABB:
    m_Center: {x: 0.07454171, y: -0.0006631017, z: 1.1538923}
    m_Extent: {x: 0.3087866, y: 1.0218775, z: 1.164953}
  m_DirtyAABB: 0
--- !u!1 &934936569
GameObject:
  m_ObjectHideFlags: 0
  m_PrefabParentObject: {fileID: 100044, guid: 1078dad3c5d5163489eca104ecf31e1b, type: 2}
  m_PrefabInternal: {fileID: 0}
  serializedVersion: 4
  m_Component:
  - 4: {fileID: 934936570}
  m_Layer: 0
  m_Name: B_Head
  m_TagString: Untagged
  m_Icon: {fileID: 0}
  m_NavMeshLayer: 0
  m_StaticEditorFlags: 0
  m_IsActive: 1
--- !u!4 &934936570
Transform:
  m_ObjectHideFlags: 0
  m_PrefabParentObject: {fileID: 400048, guid: 1078dad3c5d5163489eca104ecf31e1b, type: 2}
  m_PrefabInternal: {fileID: 0}
  m_GameObject: {fileID: 934936569}
  m_LocalRotation: {x: 0.0000000297811, y: -0.0000000010923776, z: 0.00039887495,
    w: 0.99999994}
  m_LocalPosition: {x: -0.10019302, y: 0.014083147, z: 0.0000000019178514}
  m_LocalScale: {x: 1, y: 1, z: 1}
  m_Children: []
  m_Father: {fileID: 1279912117}
  m_RootOrder: 0
--- !u!1 &1061801964
GameObject:
  m_ObjectHideFlags: 0
  m_PrefabParentObject: {fileID: 0}
  m_PrefabInternal: {fileID: 0}
  serializedVersion: 4
  m_Component:
  - 4: {fileID: 1061801966}
  - 108: {fileID: 1061801965}
  m_Layer: 0
  m_Name: Directional light
  m_TagString: Untagged
  m_Icon: {fileID: 0}
  m_NavMeshLayer: 0
  m_StaticEditorFlags: 0
  m_IsActive: 1
--- !u!108 &1061801965
Light:
  m_ObjectHideFlags: 0
  m_PrefabParentObject: {fileID: 0}
  m_PrefabInternal: {fileID: 0}
  m_GameObject: {fileID: 1061801964}
  m_Enabled: 1
  serializedVersion: 6
  m_Type: 1
  m_Color: {r: 1, g: 1, b: 1, a: 1}
  m_Intensity: 1
  m_Range: 10
  m_SpotAngle: 30
  m_CookieSize: 10
  m_Shadows:
    m_Type: 1
    m_Resolution: 3
    m_Strength: 1
    m_Bias: 0.05
    m_NormalBias: 0.4
    m_NearPlane: 0.2
  m_Cookie: {fileID: 0}
  m_DrawHalo: 0
  m_Flare: {fileID: 0}
  m_RenderMode: 0
  m_CullingMask:
    serializedVersion: 2
    m_Bits: 4294967295
  m_Lightmapping: 1
  m_BounceIntensity: 1
  m_ShadowRadius: 0
  m_ShadowAngle: 0
  m_AreaSize: {x: 1, y: 1}
--- !u!4 &1061801966
Transform:
  m_ObjectHideFlags: 0
  m_PrefabParentObject: {fileID: 0}
  m_PrefabInternal: {fileID: 0}
  m_GameObject: {fileID: 1061801964}
  m_LocalRotation: {x: 0.57087165, y: -0.56922644, z: 0.119610935, w: 0.5794654}
  m_LocalPosition: {x: 0.56189215, y: 3.2153056, z: 0.4232282}
  m_LocalScale: {x: 1, y: 1, z: 1}
  m_Children: []
  m_Father: {fileID: 0}
  m_RootOrder: 0
--- !u!1 &1072341093
GameObject:
  m_ObjectHideFlags: 0
  m_PrefabParentObject: {fileID: 100000, guid: 1078dad3c5d5163489eca104ecf31e1b, type: 2}
  m_PrefabInternal: {fileID: 0}
  serializedVersion: 4
  m_Component:
  - 4: {fileID: 1072341094}
  - 114: {fileID: 1072341095}
  m_Layer: 0
  m_Name: Heavy
  m_TagString: Untagged
  m_Icon: {fileID: 0}
  m_NavMeshLayer: 0
  m_StaticEditorFlags: 0
  m_IsActive: 1
--- !u!4 &1072341094
Transform:
  m_ObjectHideFlags: 0
  m_PrefabParentObject: {fileID: 400000, guid: 1078dad3c5d5163489eca104ecf31e1b, type: 2}
  m_PrefabInternal: {fileID: 0}
  m_GameObject: {fileID: 1072341093}
  m_LocalRotation: {x: 0, y: 0, z: 0, w: 1}
  m_LocalPosition: {x: 0, y: 0, z: 0}
  m_LocalScale: {x: 1, y: 1, z: 1}
  m_Children:
  - {fileID: 1284871756}
  m_Father: {fileID: 0}
  m_RootOrder: 2
--- !u!114 &1072341095
MonoBehaviour:
  m_ObjectHideFlags: 0
  m_PrefabParentObject: {fileID: 11400000, guid: 1078dad3c5d5163489eca104ecf31e1b,
    type: 2}
  m_PrefabInternal: {fileID: 0}
  m_GameObject: {fileID: 1072341093}
  m_Enabled: 1
  m_EditorHideFlags: 0
  m_Script: {fileID: 11500000, guid: 7f7ef17c21ec457409514db055acb92a, type: 3}
  m_Name: 
  m_EditorClassIdentifier: 
  animator: {fileID: 1284871757}
--- !u!1 &1176734573
GameObject:
  m_ObjectHideFlags: 0
  m_PrefabParentObject: {fileID: 100054, guid: 1078dad3c5d5163489eca104ecf31e1b, type: 2}
  m_PrefabInternal: {fileID: 0}
  serializedVersion: 4
  m_Component:
  - 4: {fileID: 1176734574}
  m_Layer: 0
  m_Name: B_L_Finger32
  m_TagString: Untagged
  m_Icon: {fileID: 0}
  m_NavMeshLayer: 0
  m_StaticEditorFlags: 0
  m_IsActive: 1
--- !u!4 &1176734574
Transform:
  m_ObjectHideFlags: 0
  m_PrefabParentObject: {fileID: 400010, guid: 1078dad3c5d5163489eca104ecf31e1b, type: 2}
  m_PrefabInternal: {fileID: 0}
  m_GameObject: {fileID: 1176734573}
  m_LocalRotation: {x: -0.0000005156451, y: 0.00000017745566, z: -0.039542202, w: 0.9992179}
  m_LocalPosition: {x: -0.044567756, y: 0.00000015258789, z: -0.000000019073486}
  m_LocalScale: {x: 0.9970373, y: 1.0057579, z: 1}
  m_Children: []
  m_Father: {fileID: 351425682}
  m_RootOrder: 0
--- !u!1 &1209993905
GameObject:
  m_ObjectHideFlags: 0
  m_PrefabParentObject: {fileID: 189280, guid: 16dc4b51d7b30f74a9fd33417596daa7, type: 2}
  m_PrefabInternal: {fileID: 207893267}
  serializedVersion: 4
  m_Component:
  - 4: {fileID: 1209993906}
  - 212: {fileID: 1209993907}
  m_Layer: 1
  m_Name: Controls2
  m_TagString: Untagged
  m_Icon: {fileID: 0}
  m_NavMeshLayer: 0
  m_StaticEditorFlags: 0
  m_IsActive: 1
--- !u!4 &1209993906
Transform:
  m_ObjectHideFlags: 0
  m_PrefabParentObject: {fileID: 489280, guid: 16dc4b51d7b30f74a9fd33417596daa7, type: 2}
  m_PrefabInternal: {fileID: 207893267}
  m_GameObject: {fileID: 1209993905}
  m_LocalRotation: {x: 0, y: 0, z: 0, w: 1}
  m_LocalPosition: {x: 0.000113080474, y: -1.4839044, z: 0.00000028641074}
  m_LocalScale: {x: 1, y: 1, z: 1}
  m_Children:
  - {fileID: 1618513935}
  m_Father: {fileID: 1570993314}
  m_RootOrder: 0
--- !u!212 &1209993907
SpriteRenderer:
  m_ObjectHideFlags: 0
  m_PrefabParentObject: {fileID: 21289284, guid: 16dc4b51d7b30f74a9fd33417596daa7,
    type: 2}
  m_PrefabInternal: {fileID: 207893267}
  m_GameObject: {fileID: 1209993905}
  m_Enabled: 1
  m_CastShadows: 0
  m_ReceiveShadows: 0
  m_Materials:
  - {fileID: 10754, guid: 0000000000000000e000000000000000, type: 0}
  m_SubsetIndices: 
  m_StaticBatchRoot: {fileID: 0}
  m_UseLightProbes: 0
  m_ReflectionProbeUsage: 0
  m_ProbeAnchor: {fileID: 0}
  m_ScaleInLightmap: 1
  m_PreserveUVs: 0
  m_IgnoreNormalsForChartDetection: 0
  m_ImportantGI: 0
  m_MinimumChartSize: 4
  m_AutoUVMaxDistance: 0.5
  m_AutoUVMaxAngle: 89
  m_LightmapParameters: {fileID: 0}
  m_SortingLayerID: 0
  m_SortingOrder: 0
  m_Sprite: {fileID: 21300000, guid: 71cebfefac3f1b7489f3d7e5aece34dd, type: 3}
  m_Color: {r: 1, g: 1, b: 1, a: 1}
  m_FlipX: 0
  m_FlipY: 0
--- !u!1 &1239298411
GameObject:
  m_ObjectHideFlags: 0
  m_PrefabParentObject: {fileID: 189288, guid: 16dc4b51d7b30f74a9fd33417596daa7, type: 2}
  m_PrefabInternal: {fileID: 207893267}
  serializedVersion: 4
  m_Component:
  - 4: {fileID: 1239298417}
  - 20: {fileID: 1239298416}
  - 92: {fileID: 1239298415}
  - 124: {fileID: 1239298414}
  - 81: {fileID: 1239298413}
  - 114: {fileID: 1239298412}
  m_Layer: 0
  m_Name: Camera
  m_TagString: MainCamera
  m_Icon: {fileID: 0}
  m_NavMeshLayer: 0
  m_StaticEditorFlags: 0
  m_IsActive: 1
--- !u!114 &1239298412
MonoBehaviour:
  m_ObjectHideFlags: 0
  m_PrefabParentObject: {fileID: 11489288, guid: 16dc4b51d7b30f74a9fd33417596daa7,
    type: 2}
  m_PrefabInternal: {fileID: 207893267}
  m_GameObject: {fileID: 1239298411}
  m_Enabled: 1
  m_EditorHideFlags: 0
  m_Script: {fileID: 11500000, guid: ea4eae62ba0e14f49b9e1728534c3564, type: 3}
  m_Name: 
  m_EditorClassIdentifier: 
  fastSpeed: 0.3
  cameraSpeed: 0.1
  defaultCam: {fileID: 1239298411}
  defaultSpeed: 0.08
  clampInDegrees: {x: 360, y: 180}
  lockCursor: 0
  sensitivity: {x: 2, y: 2}
  smoothing: {x: 3, y: 3}
  targetDirection: {x: 0, y: 0}
  distance: 5
  height: 3
  heightOffset: 1
  damping: 10
  smoothRotation: 1
  rotationDamping: 10
--- !u!81 &1239298413
AudioListener:
  m_ObjectHideFlags: 0
  m_PrefabParentObject: {fileID: 8189288, guid: 16dc4b51d7b30f74a9fd33417596daa7,
    type: 2}
  m_PrefabInternal: {fileID: 207893267}
  m_GameObject: {fileID: 1239298411}
  m_Enabled: 1
--- !u!124 &1239298414
Behaviour:
  m_ObjectHideFlags: 0
  m_PrefabParentObject: {fileID: 12489288, guid: 16dc4b51d7b30f74a9fd33417596daa7,
    type: 2}
  m_PrefabInternal: {fileID: 207893267}
  m_GameObject: {fileID: 1239298411}
  m_Enabled: 1
--- !u!92 &1239298415
Behaviour:
  m_ObjectHideFlags: 0
  m_PrefabParentObject: {fileID: 9289288, guid: 16dc4b51d7b30f74a9fd33417596daa7,
    type: 2}
  m_PrefabInternal: {fileID: 207893267}
  m_GameObject: {fileID: 1239298411}
  m_Enabled: 1
--- !u!20 &1239298416
Camera:
  m_ObjectHideFlags: 0
  m_PrefabParentObject: {fileID: 2089288, guid: 16dc4b51d7b30f74a9fd33417596daa7,
    type: 2}
  m_PrefabInternal: {fileID: 207893267}
  m_GameObject: {fileID: 1239298411}
  m_Enabled: 1
  serializedVersion: 2
  m_ClearFlags: 1
  m_BackGroundColor: {r: 0.22745098, g: 0.22352941, b: 0.22745098, a: 0.019607844}
  m_NormalizedViewPortRect:
    serializedVersion: 2
    x: 0
    y: 0
    width: 1
    height: 1
  near clip plane: 0.3
  far clip plane: 1000
  field of view: 60
  orthographic: 0
  orthographic size: 5
  m_Depth: -1
  m_CullingMask:
    serializedVersion: 2
    m_Bits: 4294967295
  m_RenderingPath: -1
  m_TargetTexture: {fileID: 0}
  m_TargetDisplay: 0
  m_TargetEye: 3
  m_HDR: 1
  m_OcclusionCulling: 1
  m_StereoConvergence: 10
  m_StereoSeparation: 0.022
  m_StereoMirrorMode: 0
--- !u!4 &1239298417
Transform:
  m_ObjectHideFlags: 0
  m_PrefabParentObject: {fileID: 489288, guid: 16dc4b51d7b30f74a9fd33417596daa7, type: 2}
  m_PrefabInternal: {fileID: 207893267}
  m_GameObject: {fileID: 1239298411}
  m_LocalRotation: {x: 0.09229573, y: -0.7010566, z: 0.09229592, w: 0.7010582}
  m_LocalPosition: {x: 4.538801, y: 2.9412956, z: 0}
  m_LocalScale: {x: 1, y: 1, z: 1}
  m_Children:
  - {fileID: 1894918318}
  m_Father: {fileID: 0}
  m_RootOrder: 3
--- !u!1 &1240169621
GameObject:
  m_ObjectHideFlags: 0
  m_PrefabParentObject: {fileID: 100072, guid: 1078dad3c5d5163489eca104ecf31e1b, type: 2}
  m_PrefabInternal: {fileID: 0}
  serializedVersion: 4
  m_Component:
  - 4: {fileID: 1240169622}
  m_Layer: 0
  m_Name: B_L_Finger02
  m_TagString: Untagged
  m_Icon: {fileID: 0}
  m_NavMeshLayer: 0
  m_StaticEditorFlags: 0
  m_IsActive: 1
--- !u!4 &1240169622
Transform:
  m_ObjectHideFlags: 0
  m_PrefabParentObject: {fileID: 400064, guid: 1078dad3c5d5163489eca104ecf31e1b, type: 2}
  m_PrefabInternal: {fileID: 0}
  m_GameObject: {fileID: 1240169621}
  m_LocalRotation: {x: 0.0000002792698, y: 0.00000035323646, z: 0.010614109, w: 0.9999437}
  m_LocalPosition: {x: -0.055299453, y: 0, z: 0.00000022888183}
  m_LocalScale: {x: 0.9997856, y: 1.0004194, z: 1}
  m_Children: []
  m_Father: {fileID: 1965786144}
  m_RootOrder: 0
--- !u!1 &1279912116
GameObject:
  m_ObjectHideFlags: 0
  m_PrefabParentObject: {fileID: 100046, guid: 1078dad3c5d5163489eca104ecf31e1b, type: 2}
  m_PrefabInternal: {fileID: 0}
  serializedVersion: 4
  m_Component:
  - 4: {fileID: 1279912117}
  m_Layer: 0
  m_Name: B_Neck
  m_TagString: Untagged
  m_Icon: {fileID: 0}
  m_NavMeshLayer: 0
  m_StaticEditorFlags: 0
  m_IsActive: 1
--- !u!4 &1279912117
Transform:
  m_ObjectHideFlags: 0
  m_PrefabParentObject: {fileID: 400050, guid: 1078dad3c5d5163489eca104ecf31e1b, type: 2}
  m_PrefabInternal: {fileID: 0}
  m_GameObject: {fileID: 1279912116}
  m_LocalRotation: {x: 0.000074386626, y: 6.118992e-12, z: -0.00000008213101, w: 1}
  m_LocalPosition: {x: -0.2703807, y: 0.011280456, z: 0.0000018270872}
  m_LocalScale: {x: 1, y: 1, z: 1}
  m_Children:
  - {fileID: 934936570}
  m_Father: {fileID: 1901239237}
  m_RootOrder: 1
--- !u!1 &1284871755
GameObject:
  m_ObjectHideFlags: 0
  m_PrefabParentObject: {fileID: 100114, guid: 1078dad3c5d5163489eca104ecf31e1b, type: 2}
  m_PrefabInternal: {fileID: 0}
  serializedVersion: 4
  m_Component:
  - 4: {fileID: 1284871756}
  - 95: {fileID: 1284871757}
  m_Layer: 0
  m_Name: Heavy
  m_TagString: Player
  m_Icon: {fileID: 0}
  m_NavMeshLayer: 0
  m_StaticEditorFlags: 0
  m_IsActive: 1
--- !u!4 &1284871756
Transform:
  m_ObjectHideFlags: 0
  m_PrefabParentObject: {fileID: 400114, guid: 1078dad3c5d5163489eca104ecf31e1b, type: 2}
  m_PrefabInternal: {fileID: 0}
  m_GameObject: {fileID: 1284871755}
  m_LocalRotation: {x: 0, y: 0, z: 0, w: 1}
  m_LocalPosition: {x: 0, y: 0, z: 0}
  m_LocalScale: {x: 1, y: 1, z: 1}
  m_Children:
  - {fileID: 866564152}
  - {fileID: 398728814}
  m_Father: {fileID: 1072341094}
  m_RootOrder: 0
--- !u!95 &1284871757
Animator:
  serializedVersion: 3
  m_ObjectHideFlags: 0
  m_PrefabParentObject: {fileID: 9500000, guid: 1078dad3c5d5163489eca104ecf31e1b,
    type: 2}
  m_PrefabInternal: {fileID: 0}
  m_GameObject: {fileID: 1284871755}
  m_Enabled: 1
  m_Avatar: {fileID: 9000000, guid: 8232c9b8b57970e439a8c6d10fc534d5, type: 3}
  m_Controller: {fileID: 9100000, guid: b86fafbb65f6d4e4aaaed030c1c2c905, type: 2}
  m_CullingMode: 1
  m_UpdateMode: 0
  m_ApplyRootMotion: 1
  m_LinearVelocityBlending: 0
  m_WarningMessage: 
  m_HasTransformHierarchy: 1
  m_AllowConstantClipSamplingOptimization: 1
--- !u!1 &1297995372
GameObject:
  m_ObjectHideFlags: 0
  m_PrefabParentObject: {fileID: 100038, guid: 1078dad3c5d5163489eca104ecf31e1b, type: 2}
  m_PrefabInternal: {fileID: 0}
  serializedVersion: 4
  m_Component:
  - 4: {fileID: 1297995373}
  m_Layer: 0
  m_Name: B_R_Forearm
  m_TagString: Untagged
  m_Icon: {fileID: 0}
  m_NavMeshLayer: 0
  m_StaticEditorFlags: 0
  m_IsActive: 1
--- !u!4 &1297995373
Transform:
  m_ObjectHideFlags: 0
  m_PrefabParentObject: {fileID: 400098, guid: 1078dad3c5d5163489eca104ecf31e1b, type: 2}
  m_PrefabInternal: {fileID: 0}
  m_GameObject: {fileID: 1297995372}
  m_LocalRotation: {x: -0.00000005209229, y: -0.0000000025375844, z: 0.04865555, w: 0.99881566}
  m_LocalPosition: {x: -0.33774403, y: 0.000000047683713, z: 0}
  m_LocalScale: {x: 1.0000001, y: 1.0000001, z: 1}
  m_Children:
  - {fileID: 1852271292}
  m_Father: {fileID: 1824940445}
  m_RootOrder: 0
--- !u!1 &1388774150
GameObject:
  m_ObjectHideFlags: 0
  m_PrefabParentObject: {fileID: 100064, guid: 1078dad3c5d5163489eca104ecf31e1b, type: 2}
  m_PrefabInternal: {fileID: 0}
  serializedVersion: 4
  m_Component:
  - 4: {fileID: 1388774151}
  m_Layer: 0
  m_Name: B_L_Finger2
  m_TagString: Untagged
  m_Icon: {fileID: 0}
  m_NavMeshLayer: 0
  m_StaticEditorFlags: 0
  m_IsActive: 1
--- !u!4 &1388774151
Transform:
  m_ObjectHideFlags: 0
  m_PrefabParentObject: {fileID: 400066, guid: 1078dad3c5d5163489eca104ecf31e1b, type: 2}
  m_PrefabInternal: {fileID: 0}
  m_GameObject: {fileID: 1388774150}
  m_LocalRotation: {x: 0.06151899, y: 0.003570223, z: -0.2683514, w: 0.9613481}
  m_LocalPosition: {x: -0.13785438, y: -0.012238312, z: 0.032108422}
  m_LocalScale: {x: 1.0000006, y: 1.3974203, z: 1.3698888}
  m_Children:
  - {fileID: 629345570}
  m_Father: {fileID: 1910732405}
  m_RootOrder: 2
--- !u!1 &1397307622
GameObject:
  m_ObjectHideFlags: 0
  m_PrefabParentObject: {fileID: 100086, guid: 1078dad3c5d5163489eca104ecf31e1b, type: 2}
  m_PrefabInternal: {fileID: 0}
  serializedVersion: 4
  m_Component:
  - 4: {fileID: 1397307623}
  m_Layer: 0
  m_Name: B_L_Clavicle
  m_TagString: Untagged
  m_Icon: {fileID: 0}
  m_NavMeshLayer: 0
  m_StaticEditorFlags: 0
  m_IsActive: 1
--- !u!4 &1397307623
Transform:
  m_ObjectHideFlags: 0
  m_PrefabParentObject: {fileID: 400084, guid: 1078dad3c5d5163489eca104ecf31e1b, type: 2}
  m_PrefabInternal: {fileID: 0}
  m_GameObject: {fileID: 1397307622}
  m_LocalRotation: {x: 0.70710677, y: 0.00028154097, z: -0.70710677, w: 0.00028154097}
  m_LocalPosition: {x: -0.17736861, y: 0.0007314062, z: 0.050180156}
  m_LocalScale: {x: 1, y: 1, z: 1}
  m_Children:
  - {fileID: 166129166}
  m_Father: {fileID: 1901239237}
  m_RootOrder: 0
--- !u!1 &1410974628
GameObject:
  m_ObjectHideFlags: 0
  m_PrefabParentObject: {fileID: 100080, guid: 1078dad3c5d5163489eca104ecf31e1b, type: 2}
  m_PrefabInternal: {fileID: 0}
  serializedVersion: 4
  m_Component:
  - 4: {fileID: 1410974629}
  m_Layer: 0
  m_Name: B_L_ForeArmTwist
  m_TagString: Untagged
  m_Icon: {fileID: 0}
  m_NavMeshLayer: 0
  m_StaticEditorFlags: 0
  m_IsActive: 1
--- !u!4 &1410974629
Transform:
  m_ObjectHideFlags: 0
  m_PrefabParentObject: {fileID: 400078, guid: 1078dad3c5d5163489eca104ecf31e1b, type: 2}
  m_PrefabInternal: {fileID: 0}
  m_GameObject: {fileID: 1410974628}
  m_LocalRotation: {x: 0.0000000074505775, y: 0.00000007450578, z: 0.000000029802312,
    w: 1}
  m_LocalPosition: {x: -0.14660545, y: -0.00000012397766, z: 0.00000030517577}
  m_LocalScale: {x: 1.0000004, y: 1.0000001, z: 1.000001}
  m_Children:
  - {fileID: 1910732405}
  m_Father: {fileID: 653983902}
  m_RootOrder: 0
--- !u!1 &1424082484
GameObject:
  m_ObjectHideFlags: 0
  m_PrefabParentObject: {fileID: 100014, guid: 1078dad3c5d5163489eca104ecf31e1b, type: 2}
  m_PrefabInternal: {fileID: 0}
  serializedVersion: 4
  m_Component:
  - 4: {fileID: 1424082485}
  m_Layer: 0
  m_Name: B_R_Finger3
  m_TagString: Untagged
  m_Icon: {fileID: 0}
  m_NavMeshLayer: 0
  m_StaticEditorFlags: 0
  m_IsActive: 1
--- !u!4 &1424082485
Transform:
  m_ObjectHideFlags: 0
  m_PrefabParentObject: {fileID: 400046, guid: 1078dad3c5d5163489eca104ecf31e1b, type: 2}
  m_PrefabInternal: {fileID: 0}
  m_GameObject: {fileID: 1424082484}
  m_LocalRotation: {x: 0.08928457, y: 0.0046400656, z: -0.19038828, w: 0.9776293}
  m_LocalPosition: {x: -0.13948509, y: 0.009346618, z: -0.07551033}
  m_LocalScale: {x: 0.99999994, y: 1.0000002, z: 1.0000002}
  m_Children:
  - {fileID: 92514667}
  m_Father: {fileID: 222088115}
  m_RootOrder: 3
--- !u!1 &1446166350
GameObject:
  m_ObjectHideFlags: 0
  m_PrefabParentObject: {fileID: 100016, guid: 1078dad3c5d5163489eca104ecf31e1b, type: 2}
  m_PrefabInternal: {fileID: 0}
  serializedVersion: 4
  m_Component:
  - 4: {fileID: 1446166351}
  m_Layer: 0
  m_Name: B_R_Finger22
  m_TagString: Untagged
  m_Icon: {fileID: 0}
  m_NavMeshLayer: 0
  m_StaticEditorFlags: 0
  m_IsActive: 1
--- !u!4 &1446166351
Transform:
  m_ObjectHideFlags: 0
  m_PrefabParentObject: {fileID: 400026, guid: 1078dad3c5d5163489eca104ecf31e1b, type: 2}
  m_PrefabInternal: {fileID: 0}
  m_GameObject: {fileID: 1446166350}
  m_LocalRotation: {x: -0.0000000037748187, y: 0.000000009489522, z: -0.044241443,
    w: 0.9990209}
  m_LocalPosition: {x: -0.04694145, y: 0, z: 0.0000002670288}
  m_LocalScale: {x: 0.9999998, y: 0.9999997, z: 0.99999976}
  m_Children: []
  m_Father: {fileID: 1449010614}
  m_RootOrder: 0
--- !u!1 &1447968064
GameObject:
  m_ObjectHideFlags: 0
  m_PrefabParentObject: {fileID: 100104, guid: 1078dad3c5d5163489eca104ecf31e1b, type: 2}
  m_PrefabInternal: {fileID: 0}
  serializedVersion: 4
  m_Component:
  - 4: {fileID: 1447968065}
  m_Layer: 0
  m_Name: B_L_Foot
  m_TagString: Untagged
  m_Icon: {fileID: 0}
  m_NavMeshLayer: 0
  m_StaticEditorFlags: 0
  m_IsActive: 1
--- !u!4 &1447968065
Transform:
  m_ObjectHideFlags: 0
  m_PrefabParentObject: {fileID: 400056, guid: 1078dad3c5d5163489eca104ecf31e1b, type: 2}
  m_PrefabInternal: {fileID: 0}
  m_GameObject: {fileID: 1447968064}
  m_LocalRotation: {x: 0.0062259766, y: 0.07353756, z: -0.124694414, w: 0.9894467}
  m_LocalPosition: {x: -0.44668463, y: -0.000000009536743, z: -0.000000038146972}
  m_LocalScale: {x: 0.9999998, y: 0.9999999, z: 0.99999994}
  m_Children:
  - {fileID: 2071227176}
  m_Father: {fileID: 2061342765}
  m_RootOrder: 0
--- !u!1 &1449010613
GameObject:
  m_ObjectHideFlags: 0
  m_PrefabParentObject: {fileID: 100018, guid: 1078dad3c5d5163489eca104ecf31e1b, type: 2}
  m_PrefabInternal: {fileID: 0}
  serializedVersion: 4
  m_Component:
  - 4: {fileID: 1449010614}
  m_Layer: 0
  m_Name: B_R_Finger21
  m_TagString: Untagged
  m_Icon: {fileID: 0}
  m_NavMeshLayer: 0
  m_StaticEditorFlags: 0
  m_IsActive: 1
--- !u!4 &1449010614
Transform:
  m_ObjectHideFlags: 0
  m_PrefabParentObject: {fileID: 400030, guid: 1078dad3c5d5163489eca104ecf31e1b, type: 2}
  m_PrefabInternal: {fileID: 0}
  m_GameObject: {fileID: 1449010613}
  m_LocalRotation: {x: -0.000000042126043, y: 0.00000006636626, z: -0.068388775, w: 0.9976588}
  m_LocalPosition: {x: -0.04131912, y: -0.00000015258789, z: -0.00000030517577}
  m_LocalScale: {x: 1.0000001, y: 1.0000002, z: 1.0000002}
  m_Children:
  - {fileID: 1446166351}
  m_Father: {fileID: 2008277510}
  m_RootOrder: 0
--- !u!1 &1529274231
GameObject:
  m_ObjectHideFlags: 0
  m_PrefabParentObject: {fileID: 0}
  m_PrefabInternal: {fileID: 0}
  serializedVersion: 4
  m_Component:
  - 4: {fileID: 1529274235}
  - 33: {fileID: 1529274234}
  - 64: {fileID: 1529274233}
  - 23: {fileID: 1529274232}
  m_Layer: 0
  m_Name: Grid
  m_TagString: Untagged
  m_Icon: {fileID: 0}
  m_NavMeshLayer: 0
  m_StaticEditorFlags: 0
  m_IsActive: 1
--- !u!23 &1529274232
MeshRenderer:
  m_ObjectHideFlags: 0
  m_PrefabParentObject: {fileID: 0}
  m_PrefabInternal: {fileID: 0}
  m_GameObject: {fileID: 1529274231}
  m_Enabled: 1
  m_CastShadows: 1
  m_ReceiveShadows: 1
  m_Materials:
  - {fileID: 2100000, guid: 68b1fdfa59a408c4e912b4f523135bec, type: 2}
  m_SubsetIndices: 
  m_StaticBatchRoot: {fileID: 0}
  m_UseLightProbes: 0
  m_ReflectionProbeUsage: 1
  m_ProbeAnchor: {fileID: 0}
  m_ScaleInLightmap: 1
  m_PreserveUVs: 0
  m_IgnoreNormalsForChartDetection: 0
  m_ImportantGI: 0
  m_MinimumChartSize: 4
  m_AutoUVMaxDistance: 0.5
  m_AutoUVMaxAngle: 89
  m_LightmapParameters: {fileID: 0}
  m_SortingLayerID: 0
  m_SortingOrder: 0
--- !u!64 &1529274233
MeshCollider:
  m_ObjectHideFlags: 0
  m_PrefabParentObject: {fileID: 0}
  m_PrefabInternal: {fileID: 0}
  m_GameObject: {fileID: 1529274231}
  m_Material: {fileID: 0}
  m_IsTrigger: 0
  m_Enabled: 1
  serializedVersion: 2
  m_Convex: 0
  m_Mesh: {fileID: 10210, guid: 0000000000000000e000000000000000, type: 0}
--- !u!33 &1529274234
MeshFilter:
  m_ObjectHideFlags: 0
  m_PrefabParentObject: {fileID: 0}
  m_PrefabInternal: {fileID: 0}
  m_GameObject: {fileID: 1529274231}
  m_Mesh: {fileID: 10210, guid: 0000000000000000e000000000000000, type: 0}
--- !u!4 &1529274235
Transform:
  m_ObjectHideFlags: 0
  m_PrefabParentObject: {fileID: 0}
  m_PrefabInternal: {fileID: 0}
  m_GameObject: {fileID: 1529274231}
  m_LocalRotation: {x: -0.0000015944873, y: 0.70710605, z: -0.7071076, w: 0.0000016350301}
  m_LocalPosition: {x: 0, y: 0, z: 0}
  m_LocalScale: {x: 50, y: 50, z: 50}
  m_Children: []
  m_Father: {fileID: 0}
  m_RootOrder: 1
--- !u!1 &1552621401
GameObject:
  m_ObjectHideFlags: 0
  m_PrefabParentObject: {fileID: 100022, guid: 1078dad3c5d5163489eca104ecf31e1b, type: 2}
  m_PrefabInternal: {fileID: 0}
  serializedVersion: 4
  m_Component:
  - 4: {fileID: 1552621402}
  m_Layer: 0
  m_Name: B_R_Finger12
  m_TagString: Untagged
  m_Icon: {fileID: 0}
  m_NavMeshLayer: 0
  m_StaticEditorFlags: 0
  m_IsActive: 1
--- !u!4 &1552621402
Transform:
  m_ObjectHideFlags: 0
  m_PrefabParentObject: {fileID: 400028, guid: 1078dad3c5d5163489eca104ecf31e1b, type: 2}
  m_PrefabInternal: {fileID: 0}
  m_GameObject: {fileID: 1552621401}
  m_LocalRotation: {x: 0.000000025449976, y: -0.000000106640506, z: -0.04984313, w: 0.99875706}
  m_LocalPosition: {x: -0.033311307, y: 0.000000076293944, z: -0.000000114440915}
  m_LocalScale: {x: 1, y: 1.0000001, z: 0.9999997}
  m_Children: []
  m_Father: {fileID: 174080093}
  m_RootOrder: 0
--- !u!1 &1570993313
GameObject:
  m_ObjectHideFlags: 0
  m_PrefabParentObject: {fileID: 189282, guid: 16dc4b51d7b30f74a9fd33417596daa7, type: 2}
  m_PrefabInternal: {fileID: 207893267}
  serializedVersion: 4
  m_Component:
  - 4: {fileID: 1570993314}
  - 212: {fileID: 1570993315}
  m_Layer: 1
  m_Name: Controls
  m_TagString: Untagged
  m_Icon: {fileID: 0}
  m_NavMeshLayer: 0
  m_StaticEditorFlags: 0
  m_IsActive: 1
--- !u!4 &1570993314
Transform:
  m_ObjectHideFlags: 0
  m_PrefabParentObject: {fileID: 489282, guid: 16dc4b51d7b30f74a9fd33417596daa7, type: 2}
  m_PrefabInternal: {fileID: 207893267}
  m_GameObject: {fileID: 1570993313}
  m_LocalRotation: {x: -0.00000006415836, y: -0.000000073995004, z: -0.00000018427781,
    w: 1}
  m_LocalPosition: {x: 4.287687, y: 2.7274058, z: 6.390817}
  m_LocalScale: {x: 1, y: 1, z: 1}
  m_Children:
  - {fileID: 1209993906}
  m_Father: {fileID: 1894918318}
  m_RootOrder: 0
--- !u!212 &1570993315
SpriteRenderer:
  m_ObjectHideFlags: 0
  m_PrefabParentObject: {fileID: 21289286, guid: 16dc4b51d7b30f74a9fd33417596daa7,
    type: 2}
  m_PrefabInternal: {fileID: 207893267}
  m_GameObject: {fileID: 1570993313}
  m_Enabled: 1
  m_CastShadows: 0
  m_ReceiveShadows: 0
  m_Materials:
  - {fileID: 10754, guid: 0000000000000000e000000000000000, type: 0}
  m_SubsetIndices: 
  m_StaticBatchRoot: {fileID: 0}
  m_UseLightProbes: 0
  m_ReflectionProbeUsage: 0
  m_ProbeAnchor: {fileID: 0}
  m_ScaleInLightmap: 1
  m_PreserveUVs: 0
  m_IgnoreNormalsForChartDetection: 0
  m_ImportantGI: 0
  m_MinimumChartSize: 4
  m_AutoUVMaxDistance: 0.5
  m_AutoUVMaxAngle: 89
  m_LightmapParameters: {fileID: 0}
  m_SortingLayerID: 0
  m_SortingOrder: 0
  m_Sprite: {fileID: 21300000, guid: 19663e3fea6f609468d37dbdcd231930, type: 3}
  m_Color: {r: 1, g: 1, b: 1, a: 1}
  m_FlipX: 0
  m_FlipY: 0
--- !u!1 &1615401675
GameObject:
  m_ObjectHideFlags: 0
  m_PrefabParentObject: {fileID: 100068, guid: 1078dad3c5d5163489eca104ecf31e1b, type: 2}
  m_PrefabInternal: {fileID: 0}
  serializedVersion: 4
  m_Component:
  - 4: {fileID: 1615401676}
  m_Layer: 0
  m_Name: B_L_Finger11
  m_TagString: Untagged
  m_Icon: {fileID: 0}
  m_NavMeshLayer: 0
  m_StaticEditorFlags: 0
  m_IsActive: 1
--- !u!4 &1615401676
Transform:
  m_ObjectHideFlags: 0
  m_PrefabParentObject: {fileID: 400018, guid: 1078dad3c5d5163489eca104ecf31e1b, type: 2}
  m_PrefabInternal: {fileID: 0}
  m_GameObject: {fileID: 1615401675}
  m_LocalRotation: {x: -0.00000021651599, y: -0.00000003602175, z: -0.031964127, w: 0.99948907}
  m_LocalPosition: {x: -0.044568326, y: -0.000000076293944, z: 0.0000001335144}
  m_LocalScale: {x: 0.99806064, y: 1.0037766, z: 1.0000006}
  m_Children:
  - {fileID: 1789372566}
  m_Father: {fileID: 1950910031}
  m_RootOrder: 0
--- !u!1 &1618513934
GameObject:
  m_ObjectHideFlags: 0
  m_PrefabParentObject: {fileID: 189284, guid: 16dc4b51d7b30f74a9fd33417596daa7, type: 2}
  m_PrefabInternal: {fileID: 207893267}
  serializedVersion: 4
  m_Component:
  - 4: {fileID: 1618513935}
  - 212: {fileID: 1618513936}
  m_Layer: 1
  m_Name: Controls3
  m_TagString: Untagged
  m_Icon: {fileID: 0}
  m_NavMeshLayer: 0
  m_StaticEditorFlags: 0
  m_IsActive: 1
--- !u!4 &1618513935
Transform:
  m_ObjectHideFlags: 0
  m_PrefabParentObject: {fileID: 489284, guid: 16dc4b51d7b30f74a9fd33417596daa7, type: 2}
  m_PrefabInternal: {fileID: 207893267}
  m_GameObject: {fileID: 1618513934}
  m_LocalRotation: {x: 0, y: 0, z: 0, w: 1}
  m_LocalPosition: {x: 0, y: -1.18, z: 0}
  m_LocalScale: {x: 1, y: 1, z: 1}
  m_Children: []
  m_Father: {fileID: 1209993906}
  m_RootOrder: 0
--- !u!212 &1618513936
SpriteRenderer:
  m_ObjectHideFlags: 0
  m_PrefabParentObject: {fileID: 21289288, guid: 16dc4b51d7b30f74a9fd33417596daa7,
    type: 2}
  m_PrefabInternal: {fileID: 207893267}
  m_GameObject: {fileID: 1618513934}
  m_Enabled: 1
  m_CastShadows: 0
  m_ReceiveShadows: 0
  m_Materials:
  - {fileID: 10754, guid: 0000000000000000e000000000000000, type: 0}
  m_SubsetIndices: 
  m_StaticBatchRoot: {fileID: 0}
  m_UseLightProbes: 0
  m_ReflectionProbeUsage: 0
  m_ProbeAnchor: {fileID: 0}
  m_ScaleInLightmap: 1
  m_PreserveUVs: 0
  m_IgnoreNormalsForChartDetection: 0
  m_ImportantGI: 0
  m_MinimumChartSize: 4
  m_AutoUVMaxDistance: 0.5
  m_AutoUVMaxAngle: 89
  m_LightmapParameters: {fileID: 0}
  m_SortingLayerID: 0
  m_SortingOrder: 0
  m_Sprite: {fileID: 21300000, guid: eef119fa112805c49b87e5d5a3fd81ec, type: 3}
  m_Color: {r: 1, g: 1, b: 1, a: 1}
  m_FlipX: 0
  m_FlipY: 0
--- !u!1 &1634367128
GameObject:
  m_ObjectHideFlags: 0
  m_PrefabParentObject: {fileID: 100096, guid: 1078dad3c5d5163489eca104ecf31e1b, type: 2}
  m_PrefabInternal: {fileID: 0}
  serializedVersion: 4
  m_Component:
  - 4: {fileID: 1634367129}
  m_Layer: 0
  m_Name: B_R_Foot
  m_TagString: Untagged
  m_Icon: {fileID: 0}
  m_NavMeshLayer: 0
  m_StaticEditorFlags: 0
  m_IsActive: 1
--- !u!4 &1634367129
Transform:
  m_ObjectHideFlags: 0
  m_PrefabParentObject: {fileID: 400060, guid: 1078dad3c5d5163489eca104ecf31e1b, type: 2}
  m_PrefabInternal: {fileID: 0}
  m_GameObject: {fileID: 1634367128}
  m_LocalRotation: {x: -0.00622549, y: -0.07353761, z: -0.12469445, w: 0.9894467}
  m_LocalPosition: {x: -0.44668472, y: 0.000000009536743, z: 0.000000019073486}
  m_LocalScale: {x: 0.9999999, y: 0.99999994, z: 0.99999994}
  m_Children:
  - {fileID: 192263739}
  m_Father: {fileID: 2086605666}
  m_RootOrder: 0
--- !u!1 &1639994935
GameObject:
  m_ObjectHideFlags: 0
  m_PrefabParentObject: {fileID: 100110, guid: 1078dad3c5d5163489eca104ecf31e1b, type: 2}
  m_PrefabInternal: {fileID: 0}
  serializedVersion: 4
  m_Component:
  - 4: {fileID: 1639994936}
  m_Layer: 0
  m_Name: B_Pelvis
  m_TagString: Untagged
  m_Icon: {fileID: 0}
  m_NavMeshLayer: 0
  m_StaticEditorFlags: 0
  m_IsActive: 1
--- !u!4 &1639994936
Transform:
  m_ObjectHideFlags: 0
  m_PrefabParentObject: {fileID: 400110, guid: 1078dad3c5d5163489eca104ecf31e1b, type: 2}
  m_PrefabInternal: {fileID: 0}
  m_GameObject: {fileID: 1639994935}
  m_LocalRotation: {x: -0.49999964, y: 0.5000004, z: 0.49999964, w: 0.5000004}
  m_LocalPosition: {x: 0.05848698, y: 0.000000074213304, z: 1.1048807}
  m_LocalScale: {x: 1, y: 1, z: 1}
  m_Children:
  - {fileID: 247159294}
  - {fileID: 575362560}
  - {fileID: 71613861}
  m_Father: {fileID: 398728814}
  m_RootOrder: 0
--- !u!1 &1789372565
GameObject:
  m_ObjectHideFlags: 0
  m_PrefabParentObject: {fileID: 100066, guid: 1078dad3c5d5163489eca104ecf31e1b, type: 2}
  m_PrefabInternal: {fileID: 0}
  serializedVersion: 4
  m_Component:
  - 4: {fileID: 1789372566}
  m_Layer: 0
  m_Name: B_L_Finger12
  m_TagString: Untagged
  m_Icon: {fileID: 0}
  m_NavMeshLayer: 0
  m_StaticEditorFlags: 0
  m_IsActive: 1
--- !u!4 &1789372566
Transform:
  m_ObjectHideFlags: 0
  m_PrefabParentObject: {fileID: 400014, guid: 1078dad3c5d5163489eca104ecf31e1b, type: 2}
  m_PrefabInternal: {fileID: 0}
  m_GameObject: {fileID: 1789372565}
  m_LocalRotation: {x: 0.00000018445408, y: 0.000000022364281, z: -0.03573291, w: 0.9993614}
  m_LocalPosition: {x: -0.03331146, y: -0.000000076293944, z: -0.00000020980835}
  m_LocalScale: {x: 0.9975785, y: 1.0047114, z: 0.9999998}
  m_Children: []
  m_Father: {fileID: 1615401676}
  m_RootOrder: 0
--- !u!1 &1800042560
GameObject:
  m_ObjectHideFlags: 0
  m_PrefabParentObject: {fileID: 100052, guid: 1078dad3c5d5163489eca104ecf31e1b, type: 2}
  m_PrefabInternal: {fileID: 0}
  serializedVersion: 4
  m_Component:
  - 4: {fileID: 1800042561}
  m_Layer: 0
  m_Name: B_L_Finger4
  m_TagString: Untagged
  m_Icon: {fileID: 0}
  m_NavMeshLayer: 0
  m_StaticEditorFlags: 0
  m_IsActive: 1
--- !u!4 &1800042561
Transform:
  m_ObjectHideFlags: 0
  m_PrefabParentObject: {fileID: 400070, guid: 1078dad3c5d5163489eca104ecf31e1b, type: 2}
  m_PrefabInternal: {fileID: 0}
  m_GameObject: {fileID: 1800042560}
  m_LocalRotation: {x: -0.18778393, y: 0.030492138, z: -0.13896663, w: 0.9718517}
  m_LocalPosition: {x: -0.117627405, y: 0.035454866, z: 0.09816769}
  m_LocalScale: {x: 1.0000001, y: 1.3974199, z: 1.3698877}
  m_Children:
  - {fileID: 636764384}
  m_Father: {fileID: 1910732405}
  m_RootOrder: 4
--- !u!1 &1821365475
GameObject:
  m_ObjectHideFlags: 0
  m_PrefabParentObject: {fileID: 100090, guid: 1078dad3c5d5163489eca104ecf31e1b, type: 2}
  m_PrefabInternal: {fileID: 0}
  serializedVersion: 4
  m_Component:
  - 4: {fileID: 1821365476}
  m_Layer: 0
  m_Name: B_Spine1
  m_TagString: Untagged
  m_Icon: {fileID: 0}
  m_NavMeshLayer: 0
  m_StaticEditorFlags: 0
  m_IsActive: 1
--- !u!4 &1821365476
Transform:
  m_ObjectHideFlags: 0
  m_PrefabParentObject: {fileID: 400054, guid: 1078dad3c5d5163489eca104ecf31e1b, type: 2}
  m_PrefabInternal: {fileID: 0}
  m_GameObject: {fileID: 1821365475}
  m_LocalRotation: {x: -5.641104e-15, y: 0, z: -0, w: 1}
  m_LocalPosition: {x: -0.18336837, y: -0.00017610073, z: -3.2048775e-10}
  m_LocalScale: {x: 1, y: 1, z: 1}
  m_Children:
  - {fileID: 1901239237}
  m_Father: {fileID: 71613861}
  m_RootOrder: 0
--- !u!1 &1824940444
GameObject:
  m_ObjectHideFlags: 0
  m_PrefabParentObject: {fileID: 100040, guid: 1078dad3c5d5163489eca104ecf31e1b, type: 2}
  m_PrefabInternal: {fileID: 0}
  serializedVersion: 4
  m_Component:
  - 4: {fileID: 1824940445}
  m_Layer: 0
  m_Name: B_R_UpperArm
  m_TagString: Untagged
  m_Icon: {fileID: 0}
  m_NavMeshLayer: 0
  m_StaticEditorFlags: 0
  m_IsActive: 1
--- !u!4 &1824940445
Transform:
  m_ObjectHideFlags: 0
  m_PrefabParentObject: {fileID: 400100, guid: 1078dad3c5d5163489eca104ecf31e1b, type: 2}
  m_PrefabInternal: {fileID: 0}
  m_GameObject: {fileID: 1824940444}
  m_LocalRotation: {x: 0.023720378, y: 0.2776329, z: 0.079138845, w: 0.9571282}
  m_LocalPosition: {x: -0.23753023, y: 0.00000015735625, z: 0.00000015258789}
  m_LocalScale: {x: 0.9999999, y: 1.0000001, z: 0.9999998}
  m_Children:
  - {fileID: 1297995373}
  m_Father: {fileID: 516682875}
  m_RootOrder: 0
--- !u!1 &1852271291
GameObject:
  m_ObjectHideFlags: 0
  m_PrefabParentObject: {fileID: 100036, guid: 1078dad3c5d5163489eca104ecf31e1b, type: 2}
  m_PrefabInternal: {fileID: 0}
  serializedVersion: 4
  m_Component:
  - 4: {fileID: 1852271292}
  m_Layer: 0
  m_Name: B_R_ForeArmTwist
  m_TagString: Untagged
  m_Icon: {fileID: 0}
  m_NavMeshLayer: 0
  m_StaticEditorFlags: 0
  m_IsActive: 1
--- !u!4 &1852271292
Transform:
  m_ObjectHideFlags: 0
  m_PrefabParentObject: {fileID: 400096, guid: 1078dad3c5d5163489eca104ecf31e1b, type: 2}
  m_PrefabInternal: {fileID: 0}
  m_GameObject: {fileID: 1852271291}
  m_LocalRotation: {x: 0.00000006332995, y: -0.000000029802326, z: 0.0000000037252925,
    w: 1}
  m_LocalPosition: {x: -0.14660542, y: -0.000000104904174, z: 0}
  m_LocalScale: {x: 0.9999999, y: 0.99999976, z: 0.9999999}
  m_Children:
  - {fileID: 222088115}
  m_Father: {fileID: 1297995373}
  m_RootOrder: 0
--- !u!1 &1856331143
GameObject:
  m_ObjectHideFlags: 0
  m_PrefabParentObject: {fileID: 100076, guid: 1078dad3c5d5163489eca104ecf31e1b, type: 2}
  m_PrefabInternal: {fileID: 0}
  serializedVersion: 4
  m_Component:
  - 4: {fileID: 1856331144}
  m_Layer: 0
  m_Name: B_L_Finger0
  m_TagString: Untagged
  m_Icon: {fileID: 0}
  m_NavMeshLayer: 0
  m_StaticEditorFlags: 0
  m_IsActive: 1
--- !u!4 &1856331144
Transform:
  m_ObjectHideFlags: 0
  m_PrefabParentObject: {fileID: 400072, guid: 1078dad3c5d5163489eca104ecf31e1b, type: 2}
  m_PrefabInternal: {fileID: 0}
  m_GameObject: {fileID: 1856331143}
  m_LocalRotation: {x: 0.45947778, y: -0.18728477, z: -0.1428609, w: 0.8563851}
  m_LocalPosition: {x: 0.004073944, y: 0.019488983, z: -0.007550516}
  m_LocalScale: {x: 1.0000002, y: 1, z: 1.0000004}
  m_Children:
  - {fileID: 1965786144}
  m_Father: {fileID: 1910732405}
  m_RootOrder: 0
--- !u!1 &1862149849
GameObject:
  m_ObjectHideFlags: 0
  m_PrefabParentObject: {fileID: 100026, guid: 1078dad3c5d5163489eca104ecf31e1b, type: 2}
  m_PrefabInternal: {fileID: 0}
  serializedVersion: 4
  m_Component:
  - 4: {fileID: 1862149850}
  m_Layer: 0
  m_Name: B_R_Finger1
  m_TagString: Untagged
  m_Icon: {fileID: 0}
  m_NavMeshLayer: 0
  m_StaticEditorFlags: 0
  m_IsActive: 1
--- !u!4 &1862149850
Transform:
  m_ObjectHideFlags: 0
  m_PrefabParentObject: {fileID: 400042, guid: 1078dad3c5d5163489eca104ecf31e1b, type: 2}
  m_PrefabInternal: {fileID: 0}
  m_GameObject: {fileID: 1862149849}
  m_LocalRotation: {x: -0.14756192, y: 0.01944471, z: -0.29266122, w: 0.9445617}
  m_LocalPosition: {x: -0.12785469, y: 0.00061782834, z: 0.0066769887}
  m_LocalScale: {x: 1, y: 1.0000004, z: 1.0000004}
  m_Children:
  - {fileID: 174080093}
  m_Father: {fileID: 222088115}
  m_RootOrder: 1
--- !u!1 &1894918317
GameObject:
  m_ObjectHideFlags: 0
  m_PrefabParentObject: {fileID: 189286, guid: 16dc4b51d7b30f74a9fd33417596daa7, type: 2}
  m_PrefabInternal: {fileID: 207893267}
  serializedVersion: 4
  m_Component:
  - 4: {fileID: 1894918318}
  - 20: {fileID: 1894918321}
  - 92: {fileID: 1894918320}
  - 124: {fileID: 1894918319}
  m_Layer: 0
  m_Name: GUI Camera
  m_TagString: Untagged
  m_Icon: {fileID: 0}
  m_NavMeshLayer: 0
  m_StaticEditorFlags: 0
  m_IsActive: 1
--- !u!4 &1894918318
Transform:
  m_ObjectHideFlags: 0
  m_PrefabParentObject: {fileID: 489286, guid: 16dc4b51d7b30f74a9fd33417596daa7, type: 2}
  m_PrefabInternal: {fileID: 207893267}
  m_GameObject: {fileID: 1894918317}
  m_LocalRotation: {x: 0, y: 0, z: 0, w: 1}
  m_LocalPosition: {x: 0, y: 0, z: 0}
  m_LocalScale: {x: 1, y: 1, z: 1}
  m_Children:
  - {fileID: 1570993314}
  m_Father: {fileID: 1239298417}
  m_RootOrder: 0
--- !u!124 &1894918319
Behaviour:
  m_ObjectHideFlags: 0
  m_PrefabParentObject: {fileID: 12489286, guid: 16dc4b51d7b30f74a9fd33417596daa7,
    type: 2}
  m_PrefabInternal: {fileID: 207893267}
  m_GameObject: {fileID: 1894918317}
  m_Enabled: 1
--- !u!92 &1894918320
Behaviour:
  m_ObjectHideFlags: 0
  m_PrefabParentObject: {fileID: 9289286, guid: 16dc4b51d7b30f74a9fd33417596daa7,
    type: 2}
  m_PrefabInternal: {fileID: 207893267}
  m_GameObject: {fileID: 1894918317}
  m_Enabled: 1
--- !u!20 &1894918321
Camera:
  m_ObjectHideFlags: 0
  m_PrefabParentObject: {fileID: 2089286, guid: 16dc4b51d7b30f74a9fd33417596daa7,
    type: 2}
  m_PrefabInternal: {fileID: 207893267}
  m_GameObject: {fileID: 1894918317}
  m_Enabled: 1
  serializedVersion: 2
  m_ClearFlags: 3
  m_BackGroundColor: {r: 0.22745098, g: 0.22352941, b: 0.22745098, a: 0.019607844}
  m_NormalizedViewPortRect:
    serializedVersion: 2
    x: 0
    y: 0
    width: 1
    height: 1
  near clip plane: 0.3
  far clip plane: 1000
  field of view: 60
  orthographic: 0
  orthographic size: 5
  m_Depth: 0
  m_CullingMask:
    serializedVersion: 2
    m_Bits: 2
  m_RenderingPath: -1
  m_TargetTexture: {fileID: 0}
  m_TargetDisplay: 0
  m_TargetEye: 3
  m_HDR: 1
  m_OcclusionCulling: 1
  m_StereoConvergence: 10
  m_StereoSeparation: 0.022
  m_StereoMirrorMode: 0
--- !u!1 &1901239236
GameObject:
  m_ObjectHideFlags: 0
  m_PrefabParentObject: {fileID: 100088, guid: 1078dad3c5d5163489eca104ecf31e1b, type: 2}
  m_PrefabInternal: {fileID: 0}
  serializedVersion: 4
  m_Component:
  - 4: {fileID: 1901239237}
  m_Layer: 0
  m_Name: B_Spine2
  m_TagString: Untagged
  m_Icon: {fileID: 0}
  m_NavMeshLayer: 0
  m_StaticEditorFlags: 0
  m_IsActive: 1
--- !u!4 &1901239237
Transform:
  m_ObjectHideFlags: 0
  m_PrefabParentObject: {fileID: 400052, guid: 1078dad3c5d5163489eca104ecf31e1b, type: 2}
  m_PrefabInternal: {fileID: 0}
  m_GameObject: {fileID: 1901239236}
  m_LocalRotation: {x: -0.000074863434, y: 1.110223e-16, z: 8.311511e-21, w: 1}
  m_LocalPosition: {x: -0.22115387, y: -0.0002647972, z: -0.0000001530698}
  m_LocalScale: {x: 1, y: 1, z: 1}
  m_Children:
  - {fileID: 1397307623}
  - {fileID: 1279912117}
  - {fileID: 516682875}
  m_Father: {fileID: 1821365476}
  m_RootOrder: 0
--- !u!1 &1910732404
GameObject:
  m_ObjectHideFlags: 0
  m_PrefabParentObject: {fileID: 100078, guid: 1078dad3c5d5163489eca104ecf31e1b, type: 2}
  m_PrefabInternal: {fileID: 0}
  serializedVersion: 4
  m_Component:
  - 4: {fileID: 1910732405}
  m_Layer: 0
  m_Name: B_L_Hand
  m_TagString: Untagged
  m_Icon: {fileID: 0}
  m_NavMeshLayer: 0
  m_StaticEditorFlags: 0
  m_IsActive: 1
--- !u!4 &1910732405
Transform:
  m_ObjectHideFlags: 0
  m_PrefabParentObject: {fileID: 400076, guid: 1078dad3c5d5163489eca104ecf31e1b, type: 2}
  m_PrefabInternal: {fileID: 0}
  m_GameObject: {fileID: 1910732404}
  m_LocalRotation: {x: -0.7071068, y: 0.00000045571292, z: -0.00000020283177, w: 0.7071068}
  m_LocalPosition: {x: -0.14660552, y: 0.000000019073486, z: 0}
  m_LocalScale: {x: 0.99999976, y: 0.99999946, z: 1.0000001}
  m_Children:
  - {fileID: 1856331144}
  - {fileID: 1950910031}
  - {fileID: 1388774151}
  - {fileID: 147701517}
  - {fileID: 1800042561}
  m_Father: {fileID: 1410974629}
  m_RootOrder: 0
--- !u!1 &1933431456
GameObject:
  m_ObjectHideFlags: 0
  m_PrefabParentObject: {fileID: 100004, guid: 1078dad3c5d5163489eca104ecf31e1b, type: 2}
  m_PrefabInternal: {fileID: 0}
  serializedVersion: 4
  m_Component:
  - 4: {fileID: 1933431457}
  m_Layer: 0
  m_Name: B_R_Finger42
  m_TagString: Untagged
  m_Icon: {fileID: 0}
  m_NavMeshLayer: 0
  m_StaticEditorFlags: 0
  m_IsActive: 1
--- !u!4 &1933431457
Transform:
  m_ObjectHideFlags: 0
  m_PrefabParentObject: {fileID: 400034, guid: 1078dad3c5d5163489eca104ecf31e1b, type: 2}
  m_PrefabInternal: {fileID: 0}
  m_GameObject: {fileID: 1933431456}
  m_LocalRotation: {x: 0.000000044107527, y: -0.000000016582295, z: -0.03784507, w: 0.9992836}
  m_LocalPosition: {x: -0.033276822, y: 0, z: -0.000000038146972}
  m_LocalScale: {x: 0.9999999, y: 0.9999999, z: 0.9999998}
  m_Children: []
  m_Father: {fileID: 464193819}
  m_RootOrder: 0
--- !u!1 &1950910030
GameObject:
  m_ObjectHideFlags: 0
  m_PrefabParentObject: {fileID: 100070, guid: 1078dad3c5d5163489eca104ecf31e1b, type: 2}
  m_PrefabInternal: {fileID: 0}
  serializedVersion: 4
  m_Component:
  - 4: {fileID: 1950910031}
  m_Layer: 0
  m_Name: B_L_Finger1
  m_TagString: Untagged
  m_Icon: {fileID: 0}
  m_NavMeshLayer: 0
  m_StaticEditorFlags: 0
  m_IsActive: 1
--- !u!4 &1950910031
Transform:
  m_ObjectHideFlags: 0
  m_PrefabParentObject: {fileID: 400024, guid: 1078dad3c5d5163489eca104ecf31e1b, type: 2}
  m_PrefabInternal: {fileID: 0}
  m_GameObject: {fileID: 1950910030}
  m_LocalRotation: {x: 0.14756209, y: -0.01944481, z: -0.29266164, w: 0.94456154}
  m_LocalPosition: {x: -0.12785469, y: 0.00061782834, z: -0.006677036}
  m_LocalScale: {x: 1.0000005, y: 1.3974204, z: 1.3698876}
  m_Children:
  - {fileID: 1615401676}
  m_Father: {fileID: 1910732405}
  m_RootOrder: 1
--- !u!1 &1965786143
GameObject:
  m_ObjectHideFlags: 0
  m_PrefabParentObject: {fileID: 100074, guid: 1078dad3c5d5163489eca104ecf31e1b, type: 2}
  m_PrefabInternal: {fileID: 0}
  serializedVersion: 4
  m_Component:
  - 4: {fileID: 1965786144}
  m_Layer: 0
  m_Name: B_L_Finger01
  m_TagString: Untagged
  m_Icon: {fileID: 0}
  m_NavMeshLayer: 0
  m_StaticEditorFlags: 0
  m_IsActive: 1
--- !u!4 &1965786144
Transform:
  m_ObjectHideFlags: 0
  m_PrefabParentObject: {fileID: 400074, guid: 1078dad3c5d5163489eca104ecf31e1b, type: 2}
  m_PrefabInternal: {fileID: 0}
  m_GameObject: {fileID: 1965786143}
  m_LocalRotation: {x: -0.00000025368627, y: -0.00000041788897, z: 0.031157505, w: 0.9995145}
  m_LocalPosition: {x: -0.05193329, y: -0.000000076293944, z: -0.00000015258789}
  m_LocalScale: {x: 1.0000002, y: 1.3974199, z: 1.3698878}
  m_Children:
  - {fileID: 1240169622}
  m_Father: {fileID: 1856331144}
  m_RootOrder: 0
--- !u!1 &2008277509
GameObject:
  m_ObjectHideFlags: 0
  m_PrefabParentObject: {fileID: 100020, guid: 1078dad3c5d5163489eca104ecf31e1b, type: 2}
  m_PrefabInternal: {fileID: 0}
  serializedVersion: 4
  m_Component:
  - 4: {fileID: 2008277510}
  m_Layer: 0
  m_Name: B_R_Finger2
  m_TagString: Untagged
  m_Icon: {fileID: 0}
  m_NavMeshLayer: 0
  m_StaticEditorFlags: 0
  m_IsActive: 1
--- !u!4 &2008277510
Transform:
  m_ObjectHideFlags: 0
  m_PrefabParentObject: {fileID: 400044, guid: 1078dad3c5d5163489eca104ecf31e1b, type: 2}
  m_PrefabInternal: {fileID: 0}
  m_GameObject: {fileID: 2008277509}
  m_LocalRotation: {x: -0.061518956, y: -0.0035700938, z: -0.2683515, w: 0.9613481}
  m_LocalPosition: {x: -0.13785423, y: -0.012238312, z: -0.03210846}
  m_LocalScale: {x: 0.99999994, y: 0.9999998, z: 1.0000002}
  m_Children:
  - {fileID: 1449010614}
  m_Father: {fileID: 222088115}
  m_RootOrder: 2
--- !u!1 &2061342764
GameObject:
  m_ObjectHideFlags: 0
  m_PrefabParentObject: {fileID: 100106, guid: 1078dad3c5d5163489eca104ecf31e1b, type: 2}
  m_PrefabInternal: {fileID: 0}
  serializedVersion: 4
  m_Component:
  - 4: {fileID: 2061342765}
  m_Layer: 0
  m_Name: B_L_Calf
  m_TagString: Untagged
  m_Icon: {fileID: 0}
  m_NavMeshLayer: 0
  m_StaticEditorFlags: 0
  m_IsActive: 1
--- !u!4 &2061342765
Transform:
  m_ObjectHideFlags: 0
  m_PrefabParentObject: {fileID: 400058, guid: 1078dad3c5d5163489eca104ecf31e1b, type: 2}
  m_PrefabInternal: {fileID: 0}
  m_GameObject: {fileID: 2061342764}
  m_LocalRotation: {x: -0.0000039483007, y: 0.0000005867117, z: 0.19583194, w: 0.9806375}
  m_LocalPosition: {x: -0.5028275, y: 0, z: 0.000000038146972}
  m_LocalScale: {x: 1.0000001, y: 1.0000001, z: 1}
  m_Children:
  - {fileID: 1447968065}
  m_Father: {fileID: 247159294}
  m_RootOrder: 0
--- !u!1 &2071227175
GameObject:
  m_ObjectHideFlags: 0
  m_PrefabParentObject: {fileID: 100102, guid: 1078dad3c5d5163489eca104ecf31e1b, type: 2}
  m_PrefabInternal: {fileID: 0}
  serializedVersion: 4
  m_Component:
  - 4: {fileID: 2071227176}
  m_Layer: 0
  m_Name: B_L_Toe0
  m_TagString: Untagged
  m_Icon: {fileID: 0}
  m_NavMeshLayer: 0
  m_StaticEditorFlags: 0
  m_IsActive: 1
--- !u!4 &2071227176
Transform:
  m_ObjectHideFlags: 0
  m_PrefabParentObject: {fileID: 400004, guid: 1078dad3c5d5163489eca104ecf31e1b, type: 2}
  m_PrefabInternal: {fileID: 0}
  m_GameObject: {fileID: 2071227175}
  m_LocalRotation: {x: -0.000000019986098, y: 0.000000019986098, z: -0.7071068, w: 0.7071068}
  m_LocalPosition: {x: -0.18214443, y: 0.14545952, z: 0.00020652771}
  m_LocalScale: {x: 1, y: 1, z: 1}
  m_Children: []
  m_Father: {fileID: 1447968065}
  m_RootOrder: 0
--- !u!1 &2086605665
GameObject:
  m_ObjectHideFlags: 0
  m_PrefabParentObject: {fileID: 100098, guid: 1078dad3c5d5163489eca104ecf31e1b, type: 2}
  m_PrefabInternal: {fileID: 0}
  serializedVersion: 4
  m_Component:
  - 4: {fileID: 2086605666}
  m_Layer: 0
  m_Name: B_R_Calf
  m_TagString: Untagged
  m_Icon: {fileID: 0}
  m_NavMeshLayer: 0
  m_StaticEditorFlags: 0
  m_IsActive: 1
--- !u!4 &2086605666
Transform:
  m_ObjectHideFlags: 0
  m_PrefabParentObject: {fileID: 400062, guid: 1078dad3c5d5163489eca104ecf31e1b, type: 2}
  m_PrefabInternal: {fileID: 0}
  m_GameObject: {fileID: 2086605665}
  m_LocalRotation: {x: 0.0000023498194, y: -0.00000041967402, z: 0.19583194, w: 0.9806375}
  m_LocalPosition: {x: -0.50282747, y: 0.000000019073486, z: 0.000000038146972}
  m_LocalScale: {x: 1.0000002, y: 1.0000001, z: 1}
  m_Children:
  - {fileID: 1634367129}
  m_Father: {fileID: 575362560}
  m_RootOrder: 0
